F85/New folder/tek0009ALL.csv

Model,MDO3024
Firmware Version,1.26

Waveform Type,ANALOG,
Point Format,Y,
Horizontal Units,s,
Horizontal Scale,0.0002,
Horizontal Delay,3.4e-05,
Sample Interval,2e-06,
Record Length,1000,
Gating,0.1% to 100.0%,
Probe Attenuation,1,1
Vertical Units,V,V
Vertical Offset,0,0
Vertical Scale,10,0.001
Vertical Position,1.38,0
,,
,,
,,
Label,,
TIME,CH1,CH2
-9.660e-04,2.2,-0.00064
-9.640e-04,3,-0.00048
-9.620e-04,2.6,-0.00064
-9.600e-04,2.6,-0.0002
-9.580e-04,2.6,-0.00044
-9.560e-04,2.6,-0.00016
-9.540e-04,2.6,-0.00056
-9.520e-04,3,-0.0008
-9.500e-04,2.6,-0.00032
-9.480e-04,3,-4e-05
-9.460e-04,3.4,-0.00052
-9.440e-04,3.4,-0.00032
-9.420e-04,3.8,-0.00012
-9.400e-04,3.8,-0.00016
-9.380e-04,4.2,-0.00036
-9.360e-04,4.2,-0.00036
-9.340e-04,4.2,-0.00052
-9.320e-04,3.8,-0.0002
-9.300e-04,4.6,-0.00028
-9.280e-04,4.6,0
-9.260e-04,4.6,-4e-05
-9.240e-04,4.6,-8e-05
-9.220e-04,4.6,-0.00032
-9.200e-04,4.6,-0.00048
-9.180e-04,5.4,-0.00028
-9.160e-04,5,-0.00012
-9.140e-04,5.4,-0.00032
-9.120e-04,5.4,8e-05
-9.100e-04,5.4,-0.0004
-9.080e-04,5.8,-4e-05
-9.060e-04,5.4,-0.00016
-9.040e-04,5.8,0
-9.020e-04,6.2,-0.00012
-9.000e-04,5.8,-0.00028
-8.980e-04,6.2,-0.00036
-8.960e-04,6.6,-0.00036
-8.940e-04,6.2,4e-05
-8.920e-04,6.6,-0.00036
-8.900e-04,6.6,-0.00024
-8.880e-04,6.2,-0.00012
-8.860e-04,6.2,-4e-05
-8.840e-04,7,-0.0002
-8.820e-04,7,-0.00032
-8.800e-04,6.6,-4e-05
-8.780e-04,7,-4e-05
-8.760e-04,7,-0.0004
-8.740e-04,7.4,8e-05
-8.720e-04,7,-0.00028
-8.700e-04,7.4,-0.00036
-8.680e-04,7,-4e-05
-8.660e-04,7.8,-0.00024
-8.640e-04,7.4,-0.00032
-8.620e-04,7.4,-4e-05
-8.600e-04,7.8,-0.00016
-8.580e-04,7.8,-0.00028
-8.560e-04,7.8,-0.00028
-8.540e-04,8.2,-0.00012
-8.520e-04,7.8,0.0002
-8.500e-04,8.2,4e-05
-8.480e-04,8.2,-4e-05
-8.460e-04,8.6,4e-05
-8.440e-04,8.6,8e-05
-8.420e-04,8.6,0
-8.400e-04,8.6,0.00012
-8.380e-04,8.6,0.00012
-8.360e-04,8.6,-4e-05
-8.340e-04,8.2,-0.00012
-8.320e-04,8.2,0
-8.300e-04,8.6,-0.00012
-8.280e-04,8.6,-0.00024
-8.260e-04,9,0.0002
-8.240e-04,9,-4e-05
-8.220e-04,9,0.0002
-8.200e-04,9,-8e-05
-8.180e-04,9.4,0
-8.160e-04,9,-4e-05
-8.140e-04,9,0.0002
-8.120e-04,9,-0.00016
-8.100e-04,9,0.0002
-8.080e-04,9.4,0
-8.060e-04,9.8,4e-05
-8.040e-04,9.8,0
-8.020e-04,9.4,0.00028
-8.000e-04,9.4,0.00028
-7.980e-04,9.4,0
-7.960e-04,10.2,0.00036
-7.940e-04,9.4,-8e-05
-7.920e-04,9,-0.00012
-7.900e-04,9.8,0.00036
-7.880e-04,9.4,8e-05
-7.860e-04,9.8,8e-05
-7.840e-04,10.2,4e-05
-7.820e-04,9.4,0.00032
-7.800e-04,9.8,4e-05
-7.780e-04,9.4,0.0002
-7.760e-04,9.8,0.00012
-7.740e-04,9.8,8e-05
-7.720e-04,9.8,0.00028
-7.700e-04,9.4,0.00012
-7.680e-04,10.2,0.00012
-7.660e-04,10.2,0.00032
-7.640e-04,9.8,0.00024
-7.620e-04,9.8,0.0004
-7.600e-04,9.8,0.0002
-7.580e-04,9.8,0.00032
-7.560e-04,10.2,0.00044
-7.540e-04,9.8,0.00024
-7.520e-04,10.2,0.00048
-7.500e-04,10.2,0.0004
-7.480e-04,10.2,0
-7.460e-04,9.4,0
-7.440e-04,10.2,8e-05
-7.420e-04,9.8,0.0002
-7.400e-04,9.8,0.0002
-7.380e-04,9.8,0.00024
-7.360e-04,10.2,0.00056
-7.340e-04,10.2,0.00016
-7.320e-04,9.8,0.0004
-7.300e-04,10.2,0.00048
-7.280e-04,9.8,0.00028
-7.260e-04,10.2,0.0004
-7.240e-04,10.2,0.00048
-7.220e-04,9.4,0.00036
-7.200e-04,9.8,0.00036
-7.180e-04,9.8,0
-7.160e-04,9.4,0.00012
-7.140e-04,9.8,0.00012
-7.120e-04,9.4,0.0002
-7.100e-04,9.4,0.0002
-7.080e-04,9.4,8e-05
-7.060e-04,9.4,0.00028
-7.040e-04,9.8,0.0002
-7.020e-04,9.4,0.00024
-7.000e-04,9.4,0.0006
-6.980e-04,9,0.00044
-6.960e-04,9,-4e-05
-6.940e-04,9,0.00036
-6.920e-04,9.4,0
-6.900e-04,9,0.00056
-6.880e-04,9.4,0.00032
-6.860e-04,8.6,0.00044
-6.840e-04,9,0.00048
-6.820e-04,9,0.00012
-6.800e-04,8.6,0.00012
-6.780e-04,9,0.00028
-6.760e-04,9,0.00012
-6.740e-04,8.6,0.0006
-6.720e-04,8.2,0.0002
-6.700e-04,8.2,0.00028
-6.680e-04,8.6,0.00072
-6.660e-04,8.6,0.00036
-6.640e-04,8.6,0.00036
-6.620e-04,8.2,0.00028
-6.600e-04,7.8,0.00064
-6.580e-04,7.8,0.00016
-6.560e-04,7.8,0.00036
-6.540e-04,7.8,0.00044
-6.520e-04,7.8,0.00028
-6.500e-04,7.8,0.00068
-6.480e-04,7.4,0.00052
-6.460e-04,7.4,0.0004
-6.440e-04,7.8,0.00028
-6.420e-04,7.4,0
-6.400e-04,7.4,0.00052
-6.380e-04,7.4,0.00044
-6.360e-04,7,0.0002
-6.340e-04,7,0.0002
-6.320e-04,6.6,0.00036
-6.300e-04,6.6,0.00044
-6.280e-04,6.6,0.00012
-6.260e-04,7,8e-05
-6.240e-04,6.6,0.00056
-6.220e-04,6.6,0.0004
-6.200e-04,6.6,0.00028
-6.180e-04,6.2,4e-05
-6.160e-04,6.2,0.00052
-6.140e-04,6.2,0.00024
-6.120e-04,5.8,0.00032
-6.100e-04,5.8,4e-05
-6.080e-04,6.2,0.00068
-6.060e-04,5.8,0.00092
-6.040e-04,5.8,0.0006
-6.020e-04,5.8,0.00036
-6.000e-04,5.4,0.00032
-5.980e-04,5.4,0.00028
-5.960e-04,5.4,0.0004
-5.940e-04,5,0.0004
-5.920e-04,5,0.00052
-5.900e-04,5,0.0006
-5.880e-04,4.6,0.00044
-5.860e-04,4.2,0.00036
-5.840e-04,4.2,0.00032
-5.820e-04,4.6,0.00036
-5.800e-04,4.2,0.00052
-5.780e-04,4.6,0.0002
-5.760e-04,3.8,0.00016
-5.740e-04,3.8,0.00052
-5.720e-04,3.8,0.00048
-5.700e-04,4.2,0.00036
-5.680e-04,3.4,0.00016
-5.660e-04,3.8,0.00032
-5.640e-04,3.8,0
-5.620e-04,3,-4e-05
-5.600e-04,3,0.00036
-5.580e-04,2.6,0.0002
-5.560e-04,2.6,0.00024
-5.540e-04,2.6,0.00032
-5.520e-04,2.6,-0.0002
-5.500e-04,2.2,0.00028
-5.480e-04,2.6,0.00024
-5.460e-04,2.2,0.00036
-5.440e-04,2.2,0.00048
-5.420e-04,1.8,0.00056
-5.400e-04,1.4,0.00024
-5.380e-04,1.4,0.00028
-5.360e-04,1.8,0.0002
-5.340e-04,1.8,0.00036
-5.320e-04,1.8,8e-05
-5.300e-04,1.4,0.00024
-5.280e-04,0.6,0.00024
-5.260e-04,1,4e-05
-5.240e-04,1,0.00036
-5.220e-04,0.2,0.00044
-5.200e-04,0.6,0.00012
-5.180e-04,0.2,0.0002
-5.160e-04,0.2,0.00028
-5.140e-04,-0.2,0.00016
-5.120e-04,-0.2,0.00012
-5.100e-04,-0.2,-0.00012
-5.080e-04,-0.2,8e-05
-5.060e-04,-0.6,0.00016
-5.040e-04,-0.6,0.0002
-5.020e-04,-0.6,8e-05
-5.000e-04,-1,4e-05
-4.980e-04,-0.6,0.00012
-4.960e-04,-1.4,0.00012
-4.940e-04,-1,0.00016
-4.920e-04,-1.4,0
-4.900e-04,-1.4,0.00024
-4.880e-04,-1.4,0.00032
-4.860e-04,-1,0.00028
-4.840e-04,-1.8,0.00016
-4.820e-04,-1.8,-0.00012
-4.800e-04,-2.2,8e-05
-4.780e-04,-1.8,-0.00012
-4.760e-04,-1.8,0.00032
-4.740e-04,-2.6,0.00028
-4.720e-04,-2.2,8e-05
-4.700e-04,-3,0.00028
-4.680e-04,-2.6,0
-4.660e-04,-3,0.00024
-4.640e-04,-2.6,-4e-05
-4.620e-04,-3,0.00024
-4.600e-04,-3,0
-4.580e-04,-3.4,0.00012
-4.560e-04,-3.4,0.0002
-4.540e-04,-3.8,-0.00012
-4.520e-04,-3.4,4e-05
-4.500e-04,-3.4,-8e-05
-4.480e-04,-3.8,-4e-05
-4.460e-04,-4.2,4e-05
-4.440e-04,-4.2,0
-4.420e-04,-5,-8e-05
-4.400e-04,-4.2,-0.0004
-4.380e-04,-4.6,-0.00016
-4.360e-04,-4.6,-0.00012
-4.340e-04,-4.6,4e-05
-4.320e-04,-5,-4e-05
-4.300e-04,-5,-8e-05
-4.280e-04,-5,-4e-05
-4.260e-04,-5.8,0.00012
-4.240e-04,-5.4,-4e-05
-4.220e-04,-5.4,8e-05
-4.200e-04,-5.8,-0.00016
-4.180e-04,-5.8,8e-05
-4.160e-04,-5.8,-0.00012
-4.140e-04,-6.2,-0.00036
-4.120e-04,-6.2,0
-4.100e-04,-6.2,-0.00012
-4.080e-04,-6.2,4e-05
-4.060e-04,-6.6,-0.00016
-4.040e-04,-6.6,-0.00024
-4.020e-04,-6.6,-0.00032
-4.000e-04,-7,-0.00032
-3.980e-04,-7,-8e-05
-3.960e-04,-7,0.00028
-3.940e-04,-7,0.00016
-3.920e-04,-7.4,4e-05
-3.900e-04,-7.4,-4e-05
-3.880e-04,-7.4,0
-3.860e-04,-7.4,0
-3.840e-04,-7.4,-0.00024
-3.820e-04,-7.4,-0.00024
-3.800e-04,-7.4,-0.00024
-3.780e-04,-7.8,-0.00056
-3.760e-04,-7.8,-8e-05
-3.740e-04,-7.8,-0.00016
-3.720e-04,-7.8,-4e-05
-3.700e-04,-8.6,0
-3.680e-04,-7.8,-0.00032
-3.660e-04,-8.6,-0.00028
-3.640e-04,-8.2,-0.00032
-3.620e-04,-8.2,0.00012
-3.600e-04,-8.6,-0.00028
-3.580e-04,-8.6,-0.00012
-3.560e-04,-8.6,0
-3.540e-04,-8.6,-0.0006
-3.520e-04,-9,-0.00028
-3.500e-04,-9,-0.00032
-3.480e-04,-9,-0.00052
-3.460e-04,-9.4,-4e-05
-3.440e-04,-9.4,-0.00044
-3.420e-04,-9.4,-0.00024
-3.400e-04,-9.4,-0.00036
-3.380e-04,-9.4,-0.00064
-3.360e-04,-9.4,-0.00044
-3.340e-04,-9.4,-0.0004
-3.320e-04,-9.4,-0.00056
-3.300e-04,-9.8,-0.00052
-3.280e-04,-9.4,-0.00044
-3.260e-04,-9.4,-0.00044
-3.240e-04,-9.8,-0.00028
-3.220e-04,-9.8,-0.00016
-3.200e-04,-9.8,-0.00024
-3.180e-04,-10.2,-0.00048
-3.160e-04,-9.8,-0.0004
-3.140e-04,-9.8,-0.0004
-3.120e-04,-10.2,-0.00024
-3.100e-04,-10.2,-0.00032
-3.080e-04,-10.2,-0.00048
-3.060e-04,-10.2,-0.0004
-3.040e-04,-10.6,-0.00056
-3.020e-04,-10.2,-0.00012
-3.000e-04,-10.6,-0.00032
-2.980e-04,-10.2,-0.0004
-2.960e-04,-10.2,-0.00032
-2.940e-04,-10.2,-0.00056
-2.920e-04,-10.6,-0.0006
-2.900e-04,-10.6,-0.00068
-2.880e-04,-10.6,-0.00048
-2.860e-04,-10.2,-0.00072
-2.840e-04,-10.6,-0.00036
-2.820e-04,-10.6,-0.00052
-2.800e-04,-10.6,-0.00064
-2.780e-04,-10.6,-0.00072
-2.760e-04,-10.6,-0.00088
-2.740e-04,-10.6,-0.00024
-2.720e-04,-11,-0.0006
-2.700e-04,-11,-0.00064
-2.680e-04,-10.2,-0.00108
-2.660e-04,-10.6,-0.00072
-2.640e-04,-10.6,-0.00068
-2.620e-04,-10.6,-0.00032
-2.600e-04,-11,-0.0008
-2.580e-04,-10.6,-0.00064
-2.560e-04,-11,-0.00068
-2.540e-04,-10.6,-0.00064
-2.520e-04,-10.6,-0.0008
-2.500e-04,-11,-0.00056
-2.480e-04,-10.2,-0.00076
-2.460e-04,-10.6,-0.0008
-2.440e-04,-10.6,-0.0006
-2.420e-04,-10.6,-0.00084
-2.400e-04,-10.6,-0.00044
-2.380e-04,-11,-0.00076
-2.360e-04,-11,-0.0008
-2.340e-04,-10.6,-0.00076
-2.320e-04,-10.6,-0.0006
-2.300e-04,-10.2,-0.00076
-2.280e-04,-10.6,-0.0008
-2.260e-04,-10.6,-0.00068
-2.240e-04,-10.6,-0.00064
-2.220e-04,-10.6,-0.001
-2.200e-04,-10.6,-0.0006
-2.180e-04,-10.6,-0.0008
-2.160e-04,-10.2,-0.00076
-2.140e-04,-10.2,-0.00096
-2.120e-04,-10.2,-0.00076
-2.100e-04,-10.2,-0.00032
-2.080e-04,-10.6,-0.00084
-2.060e-04,-10.2,-0.00096
-2.040e-04,-10.2,-0.00072
-2.020e-04,-10.2,-0.00064
-2.000e-04,-9.8,-0.00068
-1.980e-04,-9.8,-0.00052
-1.960e-04,-10.2,-0.00052
-1.940e-04,-9.8,-0.00068
-1.920e-04,-9.8,-0.00064
-1.900e-04,-9.8,-0.00044
-1.880e-04,-9.4,-0.00068
-1.860e-04,-9.8,-0.00068
-1.840e-04,-9.4,-0.00068
-1.820e-04,-10.2,-0.00056
-1.800e-04,-9.8,-0.00092
-1.780e-04,-9.4,-0.00064
-1.760e-04,-9.8,-0.00092
-1.740e-04,-9.4,-0.00076
-1.720e-04,-9,-0.00056
-1.700e-04,-9.4,-0.0008
-1.680e-04,-9,-0.00072
-1.660e-04,-9.4,-0.00104
-1.640e-04,-8.6,-0.00084
-1.620e-04,-9,-0.00056
-1.600e-04,-9,-0.00108
-1.580e-04,-9,-0.00084
-1.560e-04,-8.2,-0.00072
-1.540e-04,-8.6,-0.00076
-1.520e-04,-7.8,-0.00112
-1.500e-04,-8.6,-0.0006
-1.480e-04,-7.8,-0.00092
-1.460e-04,-8.2,-0.00044
-1.440e-04,-8.2,-0.00056
-1.420e-04,-7.8,-0.00048
-1.400e-04,-7.8,-0.00096
-1.380e-04,-7.8,-0.00072
-1.360e-04,-8.2,-0.00076
-1.340e-04,-7.8,-0.00076
-1.320e-04,-7.4,-0.00088
-1.300e-04,-7.4,-0.00056
-1.280e-04,-7.8,-0.00104
-1.260e-04,-7,-0.00084
-1.240e-04,-7.4,-0.00072
-1.220e-04,-7,-0.0006
-1.200e-04,-7,-0.00072
-1.180e-04,-7,-0.00084
-1.160e-04,-7.4,-0.00048
-1.140e-04,-6.6,-0.0006
-1.120e-04,-6.6,-0.0008
-1.100e-04,-6.6,-0.00056
-1.080e-04,-6.2,-0.00072
-1.060e-04,-6.2,-0.00076
-1.040e-04,-6.6,-0.0006
-1.020e-04,-6.2,-0.00076
-1.000e-04,-5.8,-0.00056
-9.800e-05,-5.4,-0.00048
-9.600e-05,-6.2,-0.00064
-9.400e-05,-6.2,-0.00068
-9.200e-05,-5.4,-0.00052
-9.000e-05,-5.4,-0.00076
-8.800e-05,-5.8,-0.00064
-8.600e-05,-5.4,-0.00072
-8.400e-05,-4.6,-0.00072
-8.200e-05,-4.6,-0.0008
-8.000e-05,-5,-0.00056
-7.800e-05,-4.6,-0.00084
-7.600e-05,-4.6,-0.00092
-7.400e-05,-4.2,-0.00044
-7.200e-05,-4.6,-0.00044
-7.000e-05,-4.2,-0.00052
-6.800e-05,-4.6,-0.00056
-6.600e-05,-4.2,-0.0008
-6.400e-05,-3.8,-0.00088
-6.200e-05,-3.8,-0.00056
-6.000e-05,-3.8,-0.00044
-5.800e-05,-3.4,-0.00052
-5.600e-05,-4.2,-0.00088
-5.400e-05,-3,-0.00088
-5.200e-05,-3,-0.00072
-5.000e-05,-3,-0.0008
-4.800e-05,-3,-0.00088
-4.600e-05,-2.6,-0.00044
-4.400e-05,-2.6,-0.00048
-4.200e-05,-2.6,-0.00064
-4.000e-05,-2.2,-0.00052
-3.800e-05,-2.6,-0.00036
-3.600e-05,-1.8,-0.00072
-3.400e-05,-1.4,-0.00032
-3.200e-05,-1.8,-0.00064
-3.000e-05,-1.8,-0.00064
-2.800e-05,-1.8,-0.00044
-2.600e-05,-1.8,-0.0006
-2.400e-05,-1.4,-0.00036
-2.200e-05,-1.4,-0.00056
-2.000e-05,-1.4,-0.00084
-1.800e-05,-1.8,-0.00068
-1.600e-05,-1,-0.00068
-1.400e-05,-1,-0.00036
-1.200e-05,-0.6,-0.00052
-1.000e-05,-0.6,-0.00028
-8.000e-06,-0.6,-0.0004
-6.000e-06,-0.6,-0.00056
-4.000e-06,-0.2,-0.00032
-2.000e-06,0.2,-0.00036
0.000e+00,0.2,-0.00064
2.000e-06,0.2,-0.0006
4.000e-06,1,-0.00056
6.000e-06,0.2,-0.00044
8.000e-06,0.6,-0.00064
1.000e-05,1,-0.00076
1.200e-05,0.6,-0.00056
1.400e-05,1,-0.00068
1.600e-05,1,-0.00072
1.800e-05,1,-0.0004
2.000e-05,1.4,-0.0008
2.200e-05,1,-0.00044
2.400e-05,1.8,-0.0002
2.600e-05,1.4,-0.00036
2.800e-05,1.8,-0.00032
3.000e-05,2.2,-0.00028
3.200e-05,1.8,-0.00052
3.400e-05,2.2,-8e-05
3.600e-05,2.6,-0.0002
3.800e-05,2.6,-0.0006
4.000e-05,2.6,-0.00036
4.200e-05,2.6,-0.00052
4.400e-05,3,-0.00044
4.600e-05,3,-0.00024
4.800e-05,3,-0.00072
5.000e-05,3,-0.00072
5.200e-05,3.4,-0.00052
5.400e-05,3.8,-0.00036
5.600e-05,3.4,-0.00024
5.800e-05,3.8,-0.00028
6.000e-05,4.2,-0.00024
6.200e-05,3.8,-0.00024
6.400e-05,3.8,-0.00048
6.600e-05,4.2,-0.0006
6.800e-05,4.6,-0.00032
7.000e-05,3.8,-0.0004
7.200e-05,4.6,-0.0004
7.400e-05,4.6,-0.00056
7.600e-05,4.6,-0.0004
7.800e-05,5,-0.0002
8.000e-05,5,-4e-05
8.200e-05,5,-0.0004
8.400e-05,5.4,-0.00052
8.600e-05,5.4,-4e-05
8.800e-05,5,-0.00032
9.000e-05,5.4,8e-05
9.200e-05,5.4,-0.00012
9.400e-05,5,4e-05
9.600e-05,5.8,-0.00016
9.800e-05,5.8,-0.00016
1.000e-04,6.2,4e-05
1.020e-04,6.6,-0.00024
1.040e-04,6.2,4e-05
1.060e-04,6.6,-0.00028
1.080e-04,6.2,-0.00028
1.100e-04,6.2,0
1.120e-04,7,4e-05
1.140e-04,7,-8e-05
1.160e-04,6.6,-0.0002
1.180e-04,7,-0.00028
1.200e-04,7,-4e-05
1.220e-04,7,-4e-05
1.240e-04,6.6,-0.00024
1.260e-04,7.4,-8e-05
1.280e-04,7.4,-8e-05
1.300e-04,7.4,0
1.320e-04,7.4,8e-05
1.340e-04,7.8,0
1.360e-04,7.4,0
1.380e-04,7.8,-0.00012
1.400e-04,7.4,-0.00016
1.420e-04,8.2,-0.00012
1.440e-04,7.8,-0.00012
1.460e-04,7.8,0.00024
1.480e-04,8.2,4e-05
1.500e-04,8.2,-0.00012
1.520e-04,7.8,-4e-05
1.540e-04,8.2,-0.00012
1.560e-04,8.2,-0.0004
1.580e-04,8.6,8e-05
1.600e-04,8.6,-0.00016
1.620e-04,8.6,-0.00016
1.640e-04,9,-0.00044
1.660e-04,8.6,-0.00032
1.680e-04,9,-0.00032
1.700e-04,8.6,-0.00016
1.720e-04,8.6,0.00016
1.740e-04,9,0
1.760e-04,9,0.0002
1.780e-04,9.4,0.00024
1.800e-04,9.4,0.00024
1.820e-04,9.4,0
1.840e-04,9,0.00028
1.860e-04,9.4,0
1.880e-04,9.4,8e-05
1.900e-04,9.4,0.00012
1.920e-04,9.4,-0.00012
1.940e-04,9.4,-4e-05
1.960e-04,9.8,0.00024
1.980e-04,9.8,0.0002
2.000e-04,9.8,0.00028
2.020e-04,9,0.00024
2.040e-04,9.4,0.00028
2.060e-04,9.4,0.00048
2.080e-04,9.4,-8e-05
2.100e-04,9.4,0.00012
2.120e-04,9.8,4e-05
2.140e-04,9.8,-0.00016
2.160e-04,9.4,0.00032
2.180e-04,10.2,0.00016
2.200e-04,9.4,0
2.220e-04,9.8,0.00024
2.240e-04,9.4,0
2.260e-04,9.8,0
2.280e-04,10.6,0.00024
2.300e-04,10.2,0.0004
2.320e-04,9.8,0.00068
2.340e-04,9.4,0.00056
2.360e-04,9.8,0.00048
2.380e-04,10.2,0.0002
2.400e-04,9.8,0.00032
2.420e-04,10.2,0
2.440e-04,10.2,0.00028
2.460e-04,9.8,8e-05
2.480e-04,9.8,0
2.500e-04,9.4,0.00072
2.520e-04,10.6,0.0002
2.540e-04,10.6,8e-05
2.560e-04,9.8,0.0002
2.580e-04,10.2,0.00048
2.600e-04,10.2,0.0002
2.620e-04,9.8,0.00036
2.640e-04,9.8,0.00024
2.660e-04,10.2,0.00012
2.680e-04,9.4,0
2.700e-04,9.8,0.00012
2.720e-04,9.4,0
2.740e-04,9.4,0.00028
2.760e-04,10.2,0.00024
2.780e-04,9.4,0.00032
2.800e-04,9.8,0.00028
2.820e-04,9.4,0.00032
2.840e-04,9.4,0.00036
2.860e-04,9.4,0.00044
2.880e-04,9.4,0.0006
2.900e-04,9.8,8e-05
2.920e-04,9.8,0.00036
2.940e-04,9.4,0.0004
2.960e-04,9,0.00044
2.980e-04,9.4,0.0004
3.000e-04,9.4,0.00052
3.020e-04,9.4,8e-05
3.040e-04,9.4,0.00064
3.060e-04,9.4,0.00064
3.080e-04,8.6,0.0006
3.100e-04,9,0.00016
3.120e-04,8.6,0.00036
3.140e-04,9,0.0002
3.160e-04,9,0.00024
3.180e-04,8.6,0.00036
3.200e-04,8.6,0.00064
3.220e-04,9,0.00032
3.240e-04,8.6,0.00052
3.260e-04,8.6,0.00032
3.280e-04,8.6,0.00036
3.300e-04,8.2,0.00028
3.320e-04,7.8,0.0004
3.340e-04,8.6,0.00048
3.360e-04,7.8,0.00028
3.380e-04,7.8,0.00056
3.400e-04,8.2,0.00064
3.420e-04,7.8,0.0004
3.440e-04,7.8,0.00052
3.460e-04,7.8,0.00048
3.480e-04,7.8,0.00056
3.500e-04,7.4,0.00056
3.520e-04,7.4,0.00032
3.540e-04,7.8,0.0006
3.560e-04,7.4,0.00052
3.580e-04,7.4,0.00052
3.600e-04,7.4,0.0004
3.620e-04,7.4,0.00056
3.640e-04,6.6,0.00052
3.660e-04,7.4,0.00016
3.680e-04,7,0.00016
3.700e-04,6.2,0.00072
3.720e-04,7,0.00048
3.740e-04,6.6,0.00056
3.760e-04,6.6,0.00044
3.780e-04,6.2,0.00012
3.800e-04,6.2,0.00052
3.820e-04,5.8,0.00036
3.840e-04,6.6,0.00024
3.860e-04,5.8,0.00064
3.880e-04,5.8,0.00032
3.900e-04,5.4,4e-05
3.920e-04,5.8,0.00068
3.940e-04,5.8,0.00056
3.960e-04,5.4,0.00024
3.980e-04,5.4,0.00012
4.000e-04,5,0
4.020e-04,5.4,0.00052
4.040e-04,4.6,0.00032
4.060e-04,5.4,0.00028
4.080e-04,4.6,0.00016
4.100e-04,5,4e-05
4.120e-04,4.6,0.00028
4.140e-04,4.2,8e-05
4.160e-04,4.6,8e-05
4.180e-04,4.6,0.00032
4.200e-04,4.2,0.00024
4.220e-04,4.2,0.00012
4.240e-04,3.8,0.0004
4.260e-04,3.8,0.00024
4.280e-04,3.4,0.00016
4.300e-04,3,0.0006
4.320e-04,3,0.00044
4.340e-04,3.4,0.00028
4.360e-04,3.4,0.00028
4.380e-04,3,0.00036
4.400e-04,3,0.00024
4.420e-04,3,0.00028
4.440e-04,2.6,0
4.460e-04,2.2,0.00024
4.480e-04,2.6,0.00036
4.500e-04,2.2,0.0004
4.520e-04,2.2,0.0002
4.540e-04,2.2,8e-05
4.560e-04,2.2,4e-05
4.580e-04,1.8,0.00044
4.600e-04,1.8,0.00032
4.620e-04,1.8,0.00036
4.640e-04,1,-0.00016
4.660e-04,1,0.00024
4.680e-04,1,0.00052
4.700e-04,1,0.0002
4.720e-04,1,0.0002
4.740e-04,0.6,0.00024
4.760e-04,1,4e-05
4.780e-04,0.2,0.00024
4.800e-04,0.2,0.00016
4.820e-04,0.2,0.00036
4.840e-04,-0.2,0.00044
4.860e-04,-0.2,0.00028
4.880e-04,-0.2,-4e-05
4.900e-04,0.2,-0.0002
4.920e-04,-0.6,0
4.940e-04,-1,0.00028
4.960e-04,-0.2,0
4.980e-04,-1,0.00016
5.000e-04,-1,8e-05
5.020e-04,-1.4,0.00024
5.040e-04,-1.4,4e-05
5.060e-04,-1.4,-0.00016
5.080e-04,-1.8,8e-05
5.100e-04,-1.4,0
5.120e-04,-1.4,4e-05
5.140e-04,-1.8,0
5.160e-04,-1.4,-4e-05
5.180e-04,-2.2,8e-05
5.200e-04,-2.2,-0.00012
5.220e-04,-2.2,8e-05
5.240e-04,-2.2,-0.00016
5.260e-04,-2.2,-0.00016
5.280e-04,-2.6,0.00012
5.300e-04,-3,8e-05
5.320e-04,-3,0
5.340e-04,-3,4e-05
5.360e-04,-3.4,-8e-05
5.380e-04,-3.4,-0.0002
5.400e-04,-3.4,-4e-05
5.420e-04,-3.8,-0.00024
5.440e-04,-3.8,-0.00028
5.460e-04,-4.2,-4e-05
5.480e-04,-3.8,8e-05
5.500e-04,-3.8,8e-05
5.520e-04,-4.6,4e-05
5.540e-04,-4.6,-0.00012
5.560e-04,-4.6,-0.00016
5.580e-04,-5,-0.00016
5.600e-04,-5,0
5.620e-04,-4.6,-0.00024
5.640e-04,-4.6,-0.0002
5.660e-04,-4.6,-0.00024
5.680e-04,-5,-4e-05
5.700e-04,-5.8,-0.00016
5.720e-04,-5.4,-0.0002
5.740e-04,-5.4,-0.00012
5.760e-04,-5.8,-8e-05
5.780e-04,-5.4,0
5.800e-04,-6.2,-8e-05
5.820e-04,-6.2,-0.00032
5.840e-04,-5.4,-0.0004
5.860e-04,-6.2,8e-05
5.880e-04,-6.2,-0.00036
5.900e-04,-6.2,-8e-05
5.920e-04,-6.2,-0.00028
5.940e-04,-6.6,-0.00032
5.960e-04,-7,-0.00032
5.980e-04,-6.6,-0.00036
6.000e-04,-7.4,-8e-05
6.020e-04,-6.6,0
6.040e-04,-7.4,-0.0002
6.060e-04,-6.6,-0.00028
6.080e-04,-7.4,-0.00032
6.100e-04,-7.8,-0.00032
6.120e-04,-7.4,-4e-05
6.140e-04,-7.4,-0.00012
6.160e-04,-7.4,-0.00016
6.180e-04,-7.8,-0.00024
6.200e-04,-7.8,-0.00024
6.220e-04,-8.2,-0.00036
6.240e-04,-7.8,0
6.260e-04,-8.2,-0.0002
6.280e-04,-8.2,-0.00028
6.300e-04,-7.8,-0.00044
6.320e-04,-8.6,-0.00012
6.340e-04,-8.6,-8e-05
6.360e-04,-8.2,-0.00024
6.380e-04,-8.6,-0.0004
6.400e-04,-8.6,-0.00024
6.420e-04,-8.6,-0.00012
6.440e-04,-9,-0.00016
6.460e-04,-9,-0.00024
6.480e-04,-9,-4e-05
6.500e-04,-9,-0.00024
6.520e-04,-9,-0.00028
6.540e-04,-9.4,-0.00044
6.560e-04,-9.4,-0.00032
6.580e-04,-9.8,-0.00044
6.600e-04,-9,-0.00032
6.620e-04,-9.4,-0.0006
6.640e-04,-9.8,-0.00032
6.660e-04,-9.4,-0.00028
6.680e-04,-9.8,-0.00044
6.700e-04,-9.8,-0.00064
6.720e-04,-9.8,-0.00028
6.740e-04,-9.8,-0.00024
6.760e-04,-9.8,-0.00072
6.780e-04,-10.6,-0.00036
6.800e-04,-10.2,-0.00036
6.820e-04,-10.2,-0.0004
6.840e-04,-10.2,-4e-05
6.860e-04,-10.2,-0.00012
6.880e-04,-10.2,-0.0004
6.900e-04,-10.2,-0.00016
6.920e-04,-9.8,-0.00048
6.940e-04,-10.6,-0.00032
6.960e-04,-10.6,-0.00064
6.980e-04,-9.8,-0.00028
7.000e-04,-10.2,-0.0002
7.020e-04,-10.2,-0.00076
7.040e-04,-10.6,-0.00064
7.060e-04,-10.6,-0.00072
7.080e-04,-10.6,-0.00052
7.100e-04,-10.6,-0.00064
7.120e-04,-11,-0.00076
7.140e-04,-10.6,-0.00028
7.160e-04,-10.6,-0.00076
7.180e-04,-10.6,-0.00072
7.200e-04,-10.6,-0.00064
7.220e-04,-10.2,-0.00096
7.240e-04,-11,-0.00068
7.260e-04,-10.6,-0.00044
7.280e-04,-11,-0.00056
7.300e-04,-10.6,-0.00052
7.320e-04,-10.6,-0.00032
7.340e-04,-10.6,-0.00028
7.360e-04,-11,-0.00044
7.380e-04,-11,-0.00028
7.400e-04,-10.6,-0.00056
7.420e-04,-10.6,-0.00056
7.440e-04,-11,-0.00072
7.460e-04,-10.6,-0.00072
7.480e-04,-11,-0.00036
7.500e-04,-10.6,-0.00108
7.520e-04,-10.6,-0.00048
7.540e-04,-10.6,-0.00044
7.560e-04,-11,-0.00092
7.580e-04,-11,-0.00052
7.600e-04,-10.6,-0.00064
7.620e-04,-10.6,-0.001
7.640e-04,-11,-0.00064
7.660e-04,-10.2,-0.00032
7.680e-04,-10.6,-0.00028
