F85/New folder/tek0011ALL.csv

Model,MDO3024
Firmware Version,1.26

Waveform Type,ANALOG,
Point Format,Y,
Horizontal Units,s,
Horizontal Scale,0.0002,
Horizontal Delay,3.4e-05,
Sample Interval,2e-06,
Record Length,1000,
Gating,0.1% to 100.0%,
Probe Attenuation,1,1
Vertical Units,V,V
Vertical Offset,0,0
Vertical Scale,10,0.001
Vertical Position,1.38,0
,,
,,
,,
Label,,
TIME,CH1,CH2
-9.660e-04,2.2,-0.00052
-9.640e-04,2.2,-4e-05
-9.620e-04,2.6,-0.00044
-9.600e-04,2.2,0.00016
-9.580e-04,2.2,-4e-05
-9.560e-04,2.6,0
-9.540e-04,2.6,-0.00036
-9.520e-04,2.6,-0.00012
-9.500e-04,3,-0.0002
-9.480e-04,3,-0.00032
-9.460e-04,3.4,-0.00044
-9.440e-04,3.4,-8e-05
-9.420e-04,3.4,-0.00016
-9.400e-04,3,-0.00048
-9.380e-04,3.8,0.00012
-9.360e-04,3.8,-4e-05
-9.340e-04,4.2,-0.00028
-9.320e-04,4.2,-0.00012
-9.300e-04,3.8,-0.00024
-9.280e-04,4.2,-0.00052
-9.260e-04,4.2,-0.00048
-9.240e-04,4.6,-0.0004
-9.220e-04,5,-0.00056
-9.200e-04,5,-0.00052
-9.180e-04,4.6,0
-9.160e-04,4.6,-0.00024
-9.140e-04,5,-0.00012
-9.120e-04,5,-0.00032
-9.100e-04,5,-0.00036
-9.080e-04,5.4,-0.00024
-9.060e-04,5.8,-0.00024
-9.040e-04,5,-0.00048
-9.020e-04,5.4,-0.00016
-9.000e-04,6.2,-8e-05
-8.980e-04,6.2,-0.00024
-8.960e-04,6.2,-0.0006
-8.940e-04,5.4,-0.00052
-8.920e-04,6.2,-0.00056
-8.900e-04,6.2,-0.00044
-8.880e-04,6.2,-0.00028
-8.860e-04,6.6,-0.00028
-8.840e-04,6.6,-0.00016
-8.820e-04,7,-0.0004
-8.800e-04,6.6,-0.00024
-8.780e-04,6.6,-0.00028
-8.760e-04,7,0
-8.740e-04,7,-0.00024
-8.720e-04,7.4,-0.00028
-8.700e-04,7.4,-0.00048
-8.680e-04,7,-0.00044
-8.660e-04,7.8,-0.00016
-8.640e-04,7.4,-0.0002
-8.620e-04,7.8,4e-05
-8.600e-04,7.8,-0.00012
-8.580e-04,7.4,-0.00056
-8.560e-04,7.8,-0.00048
-8.540e-04,7.4,-4e-05
-8.520e-04,7.8,-0.00028
-8.500e-04,8.2,-0.00036
-8.480e-04,7.8,-0.00052
-8.460e-04,8.6,-0.00056
-8.440e-04,8.2,-0.00036
-8.420e-04,8.6,-0.00056
-8.400e-04,8.6,4e-05
-8.380e-04,8.2,-0.00032
-8.360e-04,8.2,-0.00028
-8.340e-04,8.2,-0.00044
-8.320e-04,9,-0.00064
-8.300e-04,8.6,-0.00016
-8.280e-04,9,-0.00044
-8.260e-04,9,-0.00056
-8.240e-04,9,-0.00048
-8.220e-04,9,-0.00016
-8.200e-04,9,-0.00028
-8.180e-04,9,-0.00016
-8.160e-04,9,-0.00044
-8.140e-04,9,-0.00048
-8.120e-04,9.8,-0.0004
-8.100e-04,9,-4e-05
-8.080e-04,9,-0.0008
-8.060e-04,9,-0.00064
-8.040e-04,9.4,-0.0004
-8.020e-04,9,-0.00072
-8.000e-04,9.4,-8e-05
-7.980e-04,9.4,-0.00052
-7.960e-04,9.8,-0.00064
-7.940e-04,9.8,-0.00064
-7.920e-04,9.4,-0.00016
-7.900e-04,9.8,-0.0004
-7.880e-04,9.8,-0.00032
-7.860e-04,9.4,-0.00044
-7.840e-04,9.8,-0.00044
-7.820e-04,9.8,-0.00044
-7.800e-04,10.2,-0.0006
-7.780e-04,10.2,-0.00028
-7.760e-04,9.8,-0.00076
-7.740e-04,10.2,-0.00072
-7.720e-04,9.8,-0.0004
-7.700e-04,10.2,-0.00092
-7.680e-04,9.8,-0.00072
-7.660e-04,9.8,-0.00088
-7.640e-04,9.8,-0.00064
-7.620e-04,9.8,-0.00048
-7.600e-04,9.8,-0.00092
-7.580e-04,9.8,-0.00036
-7.560e-04,10.2,-0.0004
-7.540e-04,10.2,-0.00076
-7.520e-04,10.2,-0.00028
-7.500e-04,9.8,-0.00068
-7.480e-04,9.8,-0.00076
-7.460e-04,10.2,-0.00048
-7.440e-04,9.8,-0.00084
-7.420e-04,9.8,-0.00088
-7.400e-04,9.8,-0.00068
-7.380e-04,9.8,-0.00072
-7.360e-04,10.2,-0.00072
-7.340e-04,10.2,-0.00052
-7.320e-04,9.8,-0.0004
-7.300e-04,9.8,-0.00012
-7.280e-04,9.8,-0.00028
-7.260e-04,10.2,-0.00072
-7.240e-04,9.8,-0.00052
-7.220e-04,9.8,-0.00048
-7.200e-04,9.8,-0.0006
-7.180e-04,9.8,-0.00056
-7.160e-04,9.8,-0.00064
-7.140e-04,9.8,-0.00052
-7.120e-04,9.4,-0.00044
-7.100e-04,9.4,-0.00044
-7.080e-04,9.4,-0.00036
-7.060e-04,9.4,-0.00032
-7.040e-04,9.4,-0.00032
-7.020e-04,9.4,-0.00052
-7.000e-04,9.4,-0.00052
-6.980e-04,9,-0.00072
-6.960e-04,9.4,-0.00048
-6.940e-04,9,-0.00032
-6.920e-04,9.4,-0.00088
-6.900e-04,9,-0.00072
-6.880e-04,9,-0.0006
-6.860e-04,9,-0.00052
-6.840e-04,9,-0.00032
-6.820e-04,9,-0.00056
-6.800e-04,9,-0.00088
-6.780e-04,8.6,-0.00068
-6.760e-04,8.6,-0.00052
-6.740e-04,8.2,-0.00048
-6.720e-04,8.6,-0.00076
-6.700e-04,8.6,-0.001
-6.680e-04,8.6,-0.0006
-6.660e-04,8.2,-0.0008
-6.640e-04,8.6,-0.00104
-6.620e-04,8.2,-0.00084
-6.600e-04,8.2,-0.00088
-6.580e-04,8.2,-0.00044
-6.560e-04,7.8,-0.00084
-6.540e-04,8.2,-0.00064
-6.520e-04,7.8,-0.00056
-6.500e-04,7.8,-0.00088
-6.480e-04,7.8,-0.00052
-6.460e-04,7.8,-0.00064
-6.440e-04,7.8,-0.00076
-6.420e-04,7,-0.00076
-6.400e-04,7.4,-0.00108
-6.380e-04,7,-0.00076
-6.360e-04,7.4,-0.00088
-6.340e-04,7,-0.00056
-6.320e-04,7.4,-0.00076
-6.300e-04,6.6,-0.00076
-6.280e-04,6.6,-0.00056
-6.260e-04,6.6,-0.00056
-6.240e-04,6.6,-0.00052
-6.220e-04,6.6,-0.00076
-6.200e-04,6.6,-0.00064
-6.180e-04,6.2,-0.0008
-6.160e-04,6.6,-0.00064
-6.140e-04,6.6,-0.00056
-6.120e-04,6.2,-0.0008
-6.100e-04,6.2,-0.00088
-6.080e-04,5.8,-0.00068
-6.060e-04,5.8,-0.0006
-6.040e-04,5.4,-0.00076
-6.020e-04,5.4,-0.00072
-6.000e-04,5.8,-0.0004
-5.980e-04,5.4,-0.00056
-5.960e-04,5.4,-0.0008
-5.940e-04,5.4,-0.0008
-5.920e-04,5,-0.00092
-5.900e-04,5,-0.00036
-5.880e-04,5,-0.00068
-5.860e-04,5,-0.00092
-5.840e-04,5,-0.0006
-5.820e-04,4.2,-0.00056
-5.800e-04,4.2,-0.00088
-5.780e-04,4.2,-0.00044
-5.760e-04,4.2,-0.0004
-5.740e-04,4.2,-0.00068
-5.720e-04,4.2,-0.0002
-5.700e-04,4.2,-0.00052
-5.680e-04,3.8,-0.00032
-5.660e-04,3.4,-0.00064
-5.640e-04,3.8,-0.00064
-5.620e-04,3.8,-0.00076
-5.600e-04,3,-0.00072
-5.580e-04,3.4,-0.00044
-5.560e-04,3,-0.00064
-5.540e-04,3,-0.0004
-5.520e-04,3,-0.00048
-5.500e-04,2.2,-0.0008
-5.480e-04,3,-0.00048
-5.460e-04,2.2,-0.0004
-5.440e-04,2.6,-0.00052
-5.420e-04,2.2,-0.00064
-5.400e-04,1.8,-0.00076
-5.380e-04,2.2,-0.00076
-5.360e-04,1.4,-0.00064
-5.340e-04,1.8,-0.00068
-5.320e-04,1.8,-0.0006
-5.300e-04,1.4,-0.00052
-5.280e-04,1,-0.00076
-5.260e-04,1.4,-0.00072
-5.240e-04,1,-0.00068
-5.220e-04,1,-0.00052
-5.200e-04,1,-0.00064
-5.180e-04,0.6,-0.00044
-5.160e-04,0.2,-0.00048
-5.140e-04,0.2,-0.00068
-5.120e-04,0.2,-0.00048
-5.100e-04,-0.2,-0.0004
-5.080e-04,0.2,-0.00076
-5.060e-04,-0.2,-0.00044
-5.040e-04,-0.6,-0.0006
-5.020e-04,-0.6,-0.00044
-5.000e-04,-0.6,-0.00028
-4.980e-04,-1,-0.00044
-4.960e-04,-0.6,-0.00036
-4.940e-04,-1,-0.0006
-4.920e-04,-1.4,-0.00036
-4.900e-04,-1.4,-0.0004
-4.880e-04,-1.4,-0.00044
-4.860e-04,-1.8,-0.00064
-4.840e-04,-1.8,-0.00052
-4.820e-04,-1.8,-8e-05
-4.800e-04,-1.8,-0.00028
-4.780e-04,-2.2,-0.00056
-4.760e-04,-1.8,-0.00044
-4.740e-04,-2.6,-0.00044
-4.720e-04,-3,-0.00064
-4.700e-04,-2.2,-0.00068
-4.680e-04,-2.6,-0.00044
-4.660e-04,-3,-0.0006
-4.640e-04,-2.6,-0.00024
-4.620e-04,-3,-0.00036
-4.600e-04,-3,-0.00036
-4.580e-04,-3.4,-0.00052
-4.560e-04,-3.4,-0.00012
-4.540e-04,-3.4,-0.00028
-4.520e-04,-3.4,-0.00036
-4.500e-04,-3.4,-0.0004
-4.480e-04,-3.4,-0.00028
-4.460e-04,-4.2,-0.00012
-4.440e-04,-4.2,-8e-05
-4.420e-04,-4.2,-0.00056
-4.400e-04,-4.2,-0.0006
-4.380e-04,-4.2,-0.00036
-4.360e-04,-4.6,-0.0002
-4.340e-04,-5,-0.0004
-4.320e-04,-5,-0.0002
-4.300e-04,-5,-0.00024
-4.280e-04,-5,-0.0004
-4.260e-04,-5.4,4e-05
-4.240e-04,-5.4,-0.00028
-4.220e-04,-5.4,-0.00012
-4.200e-04,-5.8,-8e-05
-4.180e-04,-6.2,-0.00036
-4.160e-04,-5.8,-0.00024
-4.140e-04,-5.4,-0.00028
-4.120e-04,-5.8,-0.0002
-4.100e-04,-6.2,-0.0004
-4.080e-04,-6.2,-0.00028
-4.060e-04,-6.6,-0.0006
-4.040e-04,-7,-0.0004
-4.020e-04,-6.6,-4e-05
-4.000e-04,-7,0
-3.980e-04,-6.2,8e-05
-3.960e-04,-6.6,-4e-05
-3.940e-04,-7,-0.00024
-3.920e-04,-7.4,-0.00028
-3.900e-04,-7.4,-4e-05
-3.880e-04,-7.4,-8e-05
-3.860e-04,-7.4,4e-05
-3.840e-04,-7.4,0
-3.820e-04,-7.8,-0.00044
-3.800e-04,-7.4,0.00016
-3.780e-04,-7.8,0
-3.760e-04,-7.8,0
-3.740e-04,-8.2,-0.00044
-3.720e-04,-8.2,-4e-05
-3.700e-04,-7.8,-0.0002
-3.680e-04,-8.6,4e-05
-3.660e-04,-7.8,-4e-05
-3.640e-04,-7.8,-4e-05
-3.620e-04,-8.2,0.0002
-3.600e-04,-8.6,-0.0006
-3.580e-04,-8.6,-0.00012
-3.560e-04,-8.6,0.00012
-3.540e-04,-8.6,-0.0002
-3.520e-04,-9,-0.0002
-3.500e-04,-9,-4e-05
-3.480e-04,-9,0.00016
-3.460e-04,-9,-4e-05
-3.440e-04,-9.4,0.00024
-3.420e-04,-9.4,-4e-05
-3.400e-04,-9.4,-0.00012
-3.380e-04,-9,-4e-05
-3.360e-04,-9.4,0
-3.340e-04,-9.4,-0.00016
-3.320e-04,-9.4,-4e-05
-3.300e-04,-9.4,0.00016
-3.280e-04,-9.8,-0.00024
-3.260e-04,-9.8,4e-05
-3.240e-04,-9.8,-4e-05
-3.220e-04,-9.8,-0.0004
-3.200e-04,-9.8,0
-3.180e-04,-10.2,0
-3.160e-04,-9.8,-4e-05
-3.140e-04,-9.8,-4e-05
-3.120e-04,-9.8,4e-05
-3.100e-04,-10.6,-4e-05
-3.080e-04,-10.2,0.00012
-3.060e-04,-10.2,-4e-05
-3.040e-04,-10.2,-0.00016
-3.020e-04,-10.2,8e-05
-3.000e-04,-10.2,4e-05
-2.980e-04,-10.6,4e-05
-2.960e-04,-10.6,0.00016
-2.940e-04,-10.2,-0.00024
-2.920e-04,-10.2,-4e-05
-2.900e-04,-10.2,-0.00012
-2.880e-04,-10.6,0
-2.860e-04,-10.2,-0.00016
-2.840e-04,-10.6,0.00044
-2.820e-04,-10.2,0
-2.800e-04,-10.6,-4e-05
-2.780e-04,-10.6,0
-2.760e-04,-10.6,-4e-05
-2.740e-04,-10.6,0.00036
-2.720e-04,-11,0.00032
-2.700e-04,-11,0.00052
-2.680e-04,-10.6,0.00028
-2.660e-04,-10.6,0.00036
-2.640e-04,-11,0.00068
-2.620e-04,-10.6,0
-2.600e-04,-11,0.00016
-2.580e-04,-11,0.00024
-2.560e-04,-11,0.00016
-2.540e-04,-10.6,-4e-05
-2.520e-04,-10.2,-4e-05
-2.500e-04,-11,0.00044
-2.480e-04,-11,0.00032
-2.460e-04,-10.6,8e-05
-2.440e-04,-11,8e-05
-2.420e-04,-10.6,-0.00016
-2.400e-04,-11,0.00012
-2.380e-04,-10.6,0.00024
-2.360e-04,-10.6,0.0002
-2.340e-04,-10.6,0.00044
-2.320e-04,-10.2,0.00012
-2.300e-04,-11,0
-2.280e-04,-10.6,0.00032
-2.260e-04,-10.6,0.00012
-2.240e-04,-10.2,0
-2.220e-04,-10.2,0.00036
-2.200e-04,-10.2,0.00016
-2.180e-04,-10.6,0.00016
-2.160e-04,-10.6,0
-2.140e-04,-10.6,0.00028
-2.120e-04,-10.2,0.00028
-2.100e-04,-10.2,0.00052
-2.080e-04,-10.2,0
-2.060e-04,-10.2,0.0004
-2.040e-04,-10.2,0.00032
-2.020e-04,-10.2,4e-05
-2.000e-04,-9.8,-4e-05
-1.980e-04,-9.8,0.0004
-1.960e-04,-9.8,0.0002
-1.940e-04,-9.8,0.00028
-1.920e-04,-9.8,0.0002
-1.900e-04,-9.8,0.00016
-1.880e-04,-9.8,0.00052
-1.860e-04,-9.4,0.0002
-1.840e-04,-9.8,0.0004
-1.820e-04,-9.4,0.0002
-1.800e-04,-9.4,8e-05
-1.780e-04,-9,0.00012
-1.760e-04,-9.4,0.00016
-1.740e-04,-9,0.00016
-1.720e-04,-9,0.0002
-1.700e-04,-9,0.00044
-1.680e-04,-8.6,0.00024
-1.660e-04,-9.4,0.00024
-1.640e-04,-9,0.00052
-1.620e-04,-9,0.00028
-1.600e-04,-9,0.00028
-1.580e-04,-8.6,8e-05
-1.560e-04,-8.6,0.00016
-1.540e-04,-8.2,0.0002
-1.520e-04,-8.6,0.00024
-1.500e-04,-8.2,0.0004
-1.480e-04,-8.2,0.00056
-1.460e-04,-8.2,0.00024
-1.440e-04,-8.2,0.00036
-1.420e-04,-7.8,0.00044
-1.400e-04,-8.2,0.00016
-1.380e-04,-7.8,0.00012
-1.360e-04,-7.8,4e-05
-1.340e-04,-7.8,0.0002
-1.320e-04,-7.4,-0.00012
-1.300e-04,-7.8,0.00024
-1.280e-04,-7.4,0.00036
-1.260e-04,-7.8,0.00012
-1.240e-04,-7,0.00052
-1.220e-04,-7.4,0.00036
-1.200e-04,-7.4,0.00012
-1.180e-04,-7,8e-05
-1.160e-04,-7,0.00012
-1.140e-04,-7.4,0.0004
-1.120e-04,-7.4,8e-05
-1.100e-04,-7,0.00024
-1.080e-04,-7.4,0.0002
-1.060e-04,-6.6,0
-1.040e-04,-6.6,0
-1.020e-04,-6.2,-0.00012
-1.000e-04,-5.8,0.00028
-9.800e-05,-6.2,4e-05
-9.600e-05,-5.8,0.00032
-9.400e-05,-6.2,0.0004
-9.200e-05,-5.8,0.00032
-9.000e-05,-5.4,0
-8.800e-05,-5.8,0.00032
-8.600e-05,-5.4,0.00012
-8.400e-05,-5,-4e-05
-8.200e-05,-5,0.00032
-8.000e-05,-5,0.00012
-7.800e-05,-5,0.0004
-7.600e-05,-4.6,0.0002
-7.400e-05,-4.6,0.00028
-7.200e-05,-4.6,0.00024
-7.000e-05,-4.6,8e-05
-6.800e-05,-4.6,8e-05
-6.600e-05,-4.2,0.00012
-6.400e-05,-3.8,0.00048
-6.200e-05,-4.2,8e-05
-6.000e-05,-3.4,0.00016
-5.800e-05,-3.4,0.00052
-5.600e-05,-3.4,0.00024
-5.400e-05,-3.4,-8e-05
-5.200e-05,-3.4,0
-5.000e-05,-3.4,8e-05
-4.800e-05,-3,0.00016
-4.600e-05,-3.4,0
-4.400e-05,-2.6,0.00028
-4.200e-05,-2.6,0.00012
-4.000e-05,-2.6,0.00024
-3.800e-05,-2.6,0.00032
-3.600e-05,-2.2,0.00028
-3.400e-05,-2.6,8e-05
-3.200e-05,-2.2,0.00016
-3.000e-05,-1.8,8e-05
-2.800e-05,-1.8,-4e-05
-2.600e-05,-1.8,0.00016
-2.400e-05,-1.4,8e-05
-2.200e-05,-1.4,0.00024
-2.000e-05,-1,0.00024
-1.800e-05,-1.4,8e-05
-1.600e-05,-1.4,0.00012
-1.400e-05,-0.6,-8e-05
-1.200e-05,-1,-4e-05
-1.000e-05,-0.6,-0.00016
-8.000e-06,-0.6,-0.00036
-6.000e-06,-0.6,-4e-05
-4.000e-06,-0.2,-0.00024
-2.000e-06,-0.2,0.00028
0.000e+00,0.2,-4e-05
2.000e-06,0.2,0.00016
4.000e-06,0.2,0
6.000e-06,0.2,4e-05
8.000e-06,0.6,-4e-05
1.000e-05,0.6,0.00024
1.200e-05,0.6,0.00024
1.400e-05,1,4e-05
1.600e-05,1,-0.00012
1.800e-05,0.6,4e-05
2.000e-05,1.4,0.0002
2.200e-05,1,8e-05
2.400e-05,1.4,0.00016
2.600e-05,1.4,-0.00012
2.800e-05,1.4,0.00012
3.000e-05,1.8,0.00036
3.200e-05,1.8,-4e-05
3.400e-05,2.2,-4e-05
3.600e-05,2.2,8e-05
3.800e-05,2.2,8e-05
4.000e-05,2.2,0
4.200e-05,2.2,0.00016
4.400e-05,2.6,0.0002
4.600e-05,3,0.0002
4.800e-05,2.6,-4e-05
5.000e-05,3.4,4e-05
5.200e-05,3.4,4e-05
5.400e-05,3.8,0
5.600e-05,3.4,4e-05
5.800e-05,3.4,-8e-05
6.000e-05,3.4,-0.00024
6.200e-05,4.2,8e-05
6.400e-05,3.8,0.00032
6.600e-05,3.8,0.00016
6.800e-05,4.2,-0.00024
7.000e-05,4.2,-0.00016
7.200e-05,4.2,-0.00036
7.400e-05,4.6,0
7.600e-05,4.6,-0.0002
7.800e-05,5,4e-05
8.000e-05,4.6,-8e-05
8.200e-05,5,-0.00016
8.400e-05,5.4,-0.00044
8.600e-05,5,0.00012
8.800e-05,5.4,0.00044
9.000e-05,5,0.0002
9.200e-05,5.4,0.00016
9.400e-05,5.8,0.00036
9.600e-05,5.4,-8e-05
9.800e-05,5.8,-4e-05
1.000e-04,5.8,-8e-05
1.020e-04,6.2,4e-05
1.040e-04,6.2,-0.0004
1.060e-04,6.2,-0.00032
1.080e-04,6.2,-0.00028
1.100e-04,6.6,-0.0002
1.120e-04,6.6,-8e-05
1.140e-04,6.6,-0.00044
1.160e-04,7,-0.00028
1.180e-04,6.6,-4e-05
1.200e-04,7,0
1.220e-04,7,0.00032
1.240e-04,6.6,-0.00028
1.260e-04,7,0.00024
1.280e-04,7.4,-8e-05
1.300e-04,7.4,-0.00036
1.320e-04,7.8,-0.00028
1.340e-04,7.8,-4e-05
1.360e-04,7.4,-8e-05
1.380e-04,7.4,0
1.400e-04,7.8,-8e-05
1.420e-04,7.8,-0.00032
1.440e-04,7.8,-4e-05
1.460e-04,7.8,8e-05
1.480e-04,7.8,8e-05
1.500e-04,8.2,-8e-05
1.520e-04,8.2,-0.00012
1.540e-04,8.2,-0.00044
1.560e-04,8.6,-0.00028
1.580e-04,8.6,-4e-05
1.600e-04,7.8,-0.0004
1.620e-04,8.6,-8e-05
1.640e-04,8.6,0
1.660e-04,8.6,-0.00072
1.680e-04,9,-0.00036
1.700e-04,8.6,-0.00012
1.720e-04,9,-0.00028
1.740e-04,9,0
1.760e-04,9,-0.00024
1.780e-04,9,-0.00024
1.800e-04,9.4,-0.00024
1.820e-04,9,-8e-05
1.840e-04,9.4,-0.00024
1.860e-04,9.4,-4e-05
1.880e-04,9,-0.00024
1.900e-04,9.8,0
1.920e-04,9.4,-0.00076
1.940e-04,9.4,-0.00012
1.960e-04,9.8,-0.00044
1.980e-04,9.8,-0.00016
2.000e-04,9.4,-0.00044
2.020e-04,9.4,-0.00036
2.040e-04,10.2,-0.00052
2.060e-04,9.4,-0.00024
2.080e-04,9.4,-0.00044
2.100e-04,9.8,-0.00048
2.120e-04,9.8,-0.0002
2.140e-04,9.4,-0.00052
2.160e-04,9.8,-0.00036
2.180e-04,10.2,-0.00044
2.200e-04,9.8,-0.00048
2.220e-04,10.2,-0.00032
2.240e-04,9.8,-0.0004
2.260e-04,9.8,-0.00044
2.280e-04,9.4,-0.00048
2.300e-04,9.8,-0.00068
2.320e-04,9.8,-0.00052
2.340e-04,9.8,-0.0006
2.360e-04,10.2,-0.00048
2.380e-04,10.2,-0.00044
2.400e-04,10.2,-0.00036
2.420e-04,9.8,-0.00052
2.440e-04,9.8,-8e-05
2.460e-04,10.2,-0.00032
2.480e-04,10.2,-0.00024
2.500e-04,10.2,-0.00032
2.520e-04,9.8,-0.00024
2.540e-04,10.2,-0.00036
2.560e-04,10.2,-0.00056
2.580e-04,10.2,-0.0002
2.600e-04,9.8,-0.00048
2.620e-04,9.8,-0.0004
2.640e-04,9.8,-0.00036
2.660e-04,9.8,-0.00024
2.680e-04,9.8,-0.00052
2.700e-04,9.8,-0.00052
2.720e-04,9.8,-0.00012
2.740e-04,9.8,-0.00076
2.760e-04,9.4,-0.00064
2.780e-04,9.4,-0.00048
2.800e-04,9.8,-0.00092
2.820e-04,9.8,-0.00064
2.840e-04,9.4,-8e-05
2.860e-04,9.8,-0.00068
2.880e-04,9.8,-0.00048
2.900e-04,9.8,-0.00056
2.920e-04,9.4,-0.00068
2.940e-04,9,-0.00052
2.960e-04,9.4,-0.0008
2.980e-04,9.4,-0.00068
3.000e-04,9.8,-0.00056
3.020e-04,9.4,-0.0008
3.040e-04,9,-0.00056
3.060e-04,9.4,-0.00044
3.080e-04,9,-0.00032
3.100e-04,9,-0.00076
3.120e-04,9.4,-0.0006
3.140e-04,8.6,-0.00056
3.160e-04,9,-0.00048
3.180e-04,9,-0.00064
3.200e-04,9,-0.0006
3.220e-04,8.6,-0.00072
3.240e-04,9,-0.00044
3.260e-04,9,-0.00056
3.280e-04,8.6,-0.00068
3.300e-04,8.6,-0.00064
3.320e-04,8.6,-0.00068
3.340e-04,8.2,-0.0006
3.360e-04,8.6,-0.00088
3.380e-04,8.2,-0.00088
3.400e-04,8.2,-0.00048
3.420e-04,7.8,-0.00024
3.440e-04,7.8,-0.00064
3.460e-04,8.2,-0.00076
3.480e-04,7.8,-0.00052
3.500e-04,7.4,-0.00032
3.520e-04,7.4,-0.00048
3.540e-04,7.8,-0.00044
3.560e-04,7.8,-0.00056
3.580e-04,7.8,-0.00064
3.600e-04,7.4,-0.00052
3.620e-04,7.4,-0.00036
3.640e-04,7,-0.00056
3.660e-04,7.4,-0.00036
3.680e-04,7.4,-0.00052
3.700e-04,7.4,-0.00044
3.720e-04,6.2,-0.00036
3.740e-04,6.6,-0.00032
3.760e-04,6.6,-0.00032
3.780e-04,6.6,-0.00072
3.800e-04,6.2,-0.00056
3.820e-04,6.2,-0.00072
3.840e-04,6.2,-0.00064
3.860e-04,6.2,-0.00028
3.880e-04,5.8,-0.00068
3.900e-04,6.2,-0.00056
3.920e-04,5.8,-0.00064
3.940e-04,5.4,-0.00064
3.960e-04,5.4,-0.00052
3.980e-04,5.4,-0.00048
4.000e-04,5.4,-0.0006
4.020e-04,5.4,-0.0006
4.040e-04,5,-0.0006
4.060e-04,5,-0.00052
4.080e-04,5,-0.00036
4.100e-04,4.6,-0.00052
4.120e-04,4.6,-0.0002
4.140e-04,5,-0.00076
4.160e-04,4.6,-0.00028
4.180e-04,4.2,-0.00064
4.200e-04,4.6,-0.0004
4.220e-04,4.2,-0.00032
4.240e-04,4.2,-0.0006
4.260e-04,4.2,-0.00024
4.280e-04,4.2,-4e-05
4.300e-04,3.8,-0.00032
4.320e-04,3.4,-0.00016
4.340e-04,3.8,-0.0004
4.360e-04,3.4,-0.00056
4.380e-04,2.6,-0.00056
4.400e-04,3.4,-0.0002
4.420e-04,3,-0.00056
4.440e-04,3,-0.00016
4.460e-04,2.6,-0.0002
4.480e-04,2.6,-0.00024
4.500e-04,2.2,-0.00052
4.520e-04,2.6,-0.00036
4.540e-04,2.2,-0.00044
4.560e-04,2.2,-0.00024
4.580e-04,2.2,-0.00036
4.600e-04,2.2,-0.00048
4.620e-04,1.8,-0.00016
4.640e-04,1.8,-0.00032
4.660e-04,1.4,-0.00012
4.680e-04,1.4,-0.0004
4.700e-04,1,-0.00056
4.720e-04,1,-0.00056
4.740e-04,1,-0.00024
4.760e-04,1,-0.00044
4.780e-04,0.6,-0.00044
4.800e-04,0.6,-8e-05
4.820e-04,0.2,-0.00024
4.840e-04,0.2,-0.00036
4.860e-04,-0.2,-0.00036
4.880e-04,0.2,-0.0008
4.900e-04,-0.2,-0.00044
4.920e-04,-0.2,-0.00044
4.940e-04,-0.6,-0.00028
4.960e-04,-0.6,-0.00028
4.980e-04,-0.2,-0.00052
5.000e-04,-0.6,-0.00044
5.020e-04,-1,-0.00032
5.040e-04,-0.6,-0.00036
5.060e-04,-1.4,-0.0004
5.080e-04,-1.8,-0.00028
5.100e-04,-1.4,-0.00052
5.120e-04,-1.4,-0.00024
5.140e-04,-1.8,-0.0008
5.160e-04,-1.8,-8e-05
5.180e-04,-1.8,0
5.200e-04,-1.8,-0.00048
5.220e-04,-2.2,-0.00012
5.240e-04,-1.8,-0.00024
5.260e-04,-2.2,-0.00044
5.280e-04,-2.2,-0.00028
5.300e-04,-3,-0.0006
5.320e-04,-3,-0.0004
5.340e-04,-3,-0.00052
5.360e-04,-3,-4e-05
5.380e-04,-3,-0.0002
5.400e-04,-3.4,-0.00012
5.420e-04,-3.4,-0.00028
5.440e-04,-3.4,-0.00064
5.460e-04,-3.8,-0.00048
5.480e-04,-3.8,-0.00012
5.500e-04,-3.8,-0.0002
5.520e-04,-3.8,-0.00016
5.540e-04,-3.8,-0.00028
5.560e-04,-3.8,-0.0002
5.580e-04,-4.2,-8e-05
5.600e-04,-4.6,-8e-05
5.620e-04,-5,-0.0004
5.640e-04,-5,-0.00012
5.660e-04,-5,-0.00012
5.680e-04,-5,-8e-05
5.700e-04,-4.6,-0.00012
5.720e-04,-5,0
5.740e-04,-5.4,-0.00028
5.760e-04,-5.8,0
5.780e-04,-5.8,-0.00012
5.800e-04,-6.2,-0.00024
5.820e-04,-5.8,-0.00072
5.840e-04,-6.2,-0.00028
5.860e-04,-6.2,-0.00024
5.880e-04,-6.2,-0.00032
5.900e-04,-6.2,-0.00048
5.920e-04,-6.2,-0.00028
5.940e-04,-6.6,-0.0004
5.960e-04,-6.6,-8e-05
5.980e-04,-7,-0.00032
6.000e-04,-7,4e-05
6.020e-04,-7,0
6.040e-04,-7,-0.00024
6.060e-04,-6.6,8e-05
6.080e-04,-7.4,-0.00012
6.100e-04,-7.4,-4e-05
6.120e-04,-7,0.00028
6.140e-04,-7.4,0
6.160e-04,-7.4,8e-05
6.180e-04,-7.4,-0.00044
6.200e-04,-7.8,0.0002
6.220e-04,-7.4,0
6.240e-04,-7.4,0
6.260e-04,-8.6,0.00012
6.280e-04,-8.2,0.00016
6.300e-04,-8.2,-8e-05
6.320e-04,-8.2,0.00016
6.340e-04,-8.6,-4e-05
6.360e-04,-8.2,0.00012
6.380e-04,-8.2,0
6.400e-04,-8.6,0.00028
6.420e-04,-9,0.00016
6.440e-04,-8.2,4e-05
6.460e-04,-9,0.00032
6.480e-04,-9,0.00012
6.500e-04,-9,0.0002
6.520e-04,-8.6,8e-05
6.540e-04,-9,-4e-05
6.560e-04,-9.4,0.00012
6.580e-04,-9.4,0.00024
6.600e-04,-9,0.00036
6.620e-04,-9.4,-4e-05
6.640e-04,-9.4,0
6.660e-04,-9.8,-4e-05
6.680e-04,-9.4,0.0002
6.700e-04,-9.8,-0.00028
6.720e-04,-9.4,0.00024
6.740e-04,-9.4,0.0002
6.760e-04,-9.8,0.00028
6.780e-04,-9.4,0.0002
6.800e-04,-9.4,0.00012
6.820e-04,-10.2,0.0002
6.840e-04,-9.8,-0.00028
6.860e-04,-9.8,0.00024
6.880e-04,-10.2,0
6.900e-04,-9.8,0.00012
6.920e-04,-10.2,0.00012
6.940e-04,-10.6,4e-05
6.960e-04,-10.2,0.00036
6.980e-04,-10.2,8e-05
7.000e-04,-10.2,0.0002
7.020e-04,-10.6,0
7.040e-04,-10.2,0.00036
7.060e-04,-10.6,0.00012
7.080e-04,-10.6,0.00024
7.100e-04,-10.6,0.00016
7.120e-04,-10.2,0.0002
7.140e-04,-10.6,0.0004
7.160e-04,-10.6,0.0004
7.180e-04,-10.6,0.00072
7.200e-04,-10.6,0.00032
7.220e-04,-10.6,0.00028
7.240e-04,-10.6,0.0004
7.260e-04,-10.6,0.00032
7.280e-04,-11,0.0004
7.300e-04,-10.2,0.00044
7.320e-04,-10.6,0.00036
7.340e-04,-10.6,0.00052
7.360e-04,-10.2,0.0004
7.380e-04,-11,0.00024
7.400e-04,-10.6,0.0004
7.420e-04,-11,0.00036
7.440e-04,-11,0.00032
7.460e-04,-10.6,8e-05
7.480e-04,-10.6,0.00044
7.500e-04,-10.6,0.0004
7.520e-04,-11,0.00012
7.540e-04,-11,0.00032
7.560e-04,-10.6,0.00052
7.580e-04,-11,0.00056
7.600e-04,-11,0.00068
7.620e-04,-10.2,0.00044
