F85/tek0014.txt

Model,MDO3024
Firmware Version,1.26

Waveform Type,ANALOG,
Point Format,Y,
Horizontal Units,s,
Horizontal Scale,1,
Horizontal Delay,0,
Sample Interval,0.001,
Record Length,10000,
Gating,0.0% to 100.0%,
Probe Attenuation,1,1
Vertical Units,V,V
Vertical Offset,0,0
Vertical Scale,2,1
Vertical Position,-1.96,-1.98
,,
,,
,,
Label,,
TIME,CH1,CH2
-5.000e+00,6.32,3.86
-4.999e+00,6.32,3.86
-4.998e+00,6.4,3.86
-4.997e+00,6.32,3.86
-4.996e+00,6.24,3.86
-4.995e+00,6.24,3.82
-4.994e+00,6.32,3.78
-4.993e+00,6.24,3.82
-4.992e+00,6.24,3.78
-4.991e+00,6.32,3.82
-4.990e+00,6.32,3.86
-4.989e+00,6.32,3.82
-4.988e+00,6.24,3.82
-4.987e+00,6.24,3.78
-4.986e+00,6.24,3.82
-4.985e+00,6.24,3.82
-4.984e+00,6.32,3.74
-4.983e+00,6.16,3.74
-4.982e+00,6.4,3.78
-4.981e+00,6.32,3.78
-4.980e+00,6.32,3.78
-4.979e+00,6.24,3.74
-4.978e+00,6.32,3.74
-4.977e+00,6.32,3.74
-4.976e+00,6.24,3.78
-4.975e+00,6.4,3.7
-4.974e+00,6.32,3.7
-4.973e+00,6.24,3.78
-4.972e+00,6.32,3.7
-4.971e+00,6.24,3.74
-4.970e+00,6.32,3.7
-4.969e+00,6.32,3.7
-4.968e+00,6.32,3.74
-4.967e+00,6.24,3.7
-4.966e+00,6.32,3.74
-4.965e+00,6.32,3.7
-4.964e+00,6.32,3.7
-4.963e+00,6.32,3.62
-4.962e+00,6.32,3.66
-4.961e+00,6.32,3.66
-4.960e+00,6.4,3.66
-4.959e+00,6.24,3.7
-4.958e+00,6.32,3.66
-4.957e+00,6.24,3.62
-4.956e+00,6.32,3.62
-4.955e+00,6.32,3.62
-4.954e+00,6.4,3.62
-4.953e+00,6.32,3.62
-4.952e+00,6.32,3.7
-4.951e+00,6.32,3.66
-4.950e+00,6.24,3.62
-4.949e+00,6.32,3.58
-4.948e+00,6.24,3.62
-4.947e+00,6.24,3.62
-4.946e+00,6.32,3.58
-4.945e+00,6.24,3.62
-4.944e+00,6.32,3.58
-4.943e+00,6.32,3.58
-4.942e+00,6.32,3.58
-4.941e+00,6.32,3.58
-4.940e+00,6.32,3.58
-4.939e+00,6.24,3.54
-4.938e+00,6.24,3.5
-4.937e+00,6.24,3.54
-4.936e+00,6.24,3.54
-4.935e+00,6.24,3.54
-4.934e+00,6.24,3.54
-4.933e+00,6.24,3.54
-4.932e+00,6.32,3.54
-4.931e+00,6.32,3.5
-4.930e+00,6.24,3.5
-4.929e+00,6.24,3.5
-4.928e+00,6.32,3.5
-4.927e+00,6.32,3.5
-4.926e+00,6.32,3.54
-4.925e+00,6.24,3.5
-4.924e+00,6.24,3.46
-4.923e+00,6.24,3.5
-4.922e+00,6.24,3.46
-4.921e+00,6.4,3.46
-4.920e+00,6.32,3.46
-4.919e+00,6.4,3.5
-4.918e+00,6.32,3.46
-4.917e+00,6.24,3.46
-4.916e+00,6.32,3.42
-4.915e+00,6.32,3.46
-4.914e+00,6.32,3.42
-4.913e+00,6.32,3.46
-4.912e+00,6.32,3.38
-4.911e+00,6.32,3.42
-4.910e+00,6.32,3.38
-4.909e+00,6.32,3.42
-4.908e+00,6.32,3.46
-4.907e+00,6.4,3.38
-4.906e+00,6.32,3.38
-4.905e+00,6.32,3.38
-4.904e+00,6.24,3.34
-4.903e+00,6.24,3.34
-4.902e+00,6.24,3.34
-4.901e+00,6.24,3.38
-4.900e+00,6.32,3.34
-4.899e+00,6.24,3.34
-4.898e+00,6.32,3.34
-4.897e+00,6.32,3.34
-4.896e+00,6.24,3.34
-4.895e+00,6.24,3.34
-4.894e+00,6.24,3.34
-4.893e+00,6.24,3.34
-4.892e+00,6.32,3.34
-4.891e+00,6.32,3.3
-4.890e+00,6.32,3.3
-4.889e+00,6.24,3.3
-4.888e+00,6.24,3.3
-4.887e+00,6.24,3.3
-4.886e+00,6.32,3.3
-4.885e+00,6.24,3.26
-4.884e+00,6.32,3.26
-4.883e+00,6.24,3.26
-4.882e+00,6.32,3.26
-4.881e+00,6.24,3.22
-4.880e+00,6.32,3.26
-4.879e+00,6.24,3.26
-4.878e+00,6.24,3.26
-4.877e+00,6.24,3.22
-4.876e+00,6.32,3.22
-4.875e+00,6.32,3.22
-4.874e+00,6.32,3.22
-4.873e+00,6.32,3.22
-4.872e+00,6.32,3.22
-4.871e+00,6.32,3.18
-4.870e+00,6.32,3.22
-4.869e+00,6.24,3.26
-4.868e+00,6.24,3.18
-4.867e+00,6.32,3.22
-4.866e+00,6.24,3.22
-4.865e+00,6.32,3.18
-4.864e+00,6.32,3.18
-4.863e+00,6.32,3.18
-4.862e+00,6.24,3.18
-4.861e+00,6.32,3.18
-4.860e+00,6.24,3.14
-4.859e+00,6.24,3.22
-4.858e+00,6.24,3.14
-4.857e+00,6.24,3.14
-4.856e+00,6.32,3.14
-4.855e+00,6.16,3.14
-4.854e+00,6.24,3.14
-4.853e+00,6.32,3.1
-4.852e+00,6.16,3.1
-4.851e+00,6.32,3.1
-4.850e+00,6.24,3.1
-4.849e+00,6.24,3.06
-4.848e+00,6.24,3.1
-4.847e+00,6.32,3.1
-4.846e+00,6.24,3.06
-4.845e+00,6.32,3.1
-4.844e+00,6.24,3.1
-4.843e+00,6.32,3.1
-4.842e+00,6.24,3.06
-4.841e+00,6.32,3.02
-4.840e+00,6.24,3.1
-4.839e+00,6.24,3.02
-4.838e+00,6.32,3.06
-4.837e+00,6.32,3.06
-4.836e+00,6.24,3.06
-4.835e+00,6.32,3.02
-4.834e+00,6.32,3.06
-4.833e+00,6.24,3.02
-4.832e+00,6.32,3.02
-4.831e+00,6.24,3.02
-4.830e+00,6.24,3.02
-4.829e+00,6.24,2.98
-4.828e+00,6.24,2.98
-4.827e+00,6.32,2.98
-4.826e+00,6.24,2.98
-4.825e+00,6.32,2.98
-4.824e+00,6.24,3.02
-4.823e+00,6.24,2.94
-4.822e+00,6.24,2.98
-4.821e+00,6.24,2.94
-4.820e+00,6.32,2.94
-4.819e+00,6.24,2.98
-4.818e+00,6.24,3.02
-4.817e+00,6.24,2.94
-4.816e+00,6.32,2.9
-4.815e+00,6.24,2.98
-4.814e+00,6.32,2.9
-4.813e+00,6.32,2.9
-4.812e+00,6.24,2.9
-4.811e+00,6.24,2.86
-4.810e+00,6.24,2.9
-4.809e+00,6.24,2.9
-4.808e+00,6.24,2.94
-4.807e+00,6.32,2.94
-4.806e+00,6.32,2.86
-4.805e+00,6.24,2.86
-4.804e+00,6.24,2.86
-4.803e+00,6.32,2.9
-4.802e+00,6.24,2.9
-4.801e+00,6.24,2.82
-4.800e+00,6.4,2.82
-4.799e+00,6.24,2.82
-4.798e+00,6.24,2.86
-4.797e+00,6.32,2.82
-4.796e+00,6.24,2.86
-4.795e+00,6.24,2.86
-4.794e+00,6.24,2.82
-4.793e+00,6.24,2.78
-4.792e+00,6.24,2.82
-4.791e+00,6.24,2.78
-4.790e+00,6.24,2.78
-4.789e+00,6.32,2.82
-4.788e+00,6.24,2.78
-4.787e+00,6.32,2.78
-4.786e+00,6.24,2.78
-4.785e+00,6.24,2.74
-4.784e+00,6.24,2.74
-4.783e+00,6.24,2.74
-4.782e+00,6.32,2.74
-4.781e+00,6.24,2.74
-4.780e+00,6.32,2.74
-4.779e+00,6.4,2.78
-4.778e+00,6.24,2.74
-4.777e+00,6.24,2.74
-4.776e+00,6.32,2.74
-4.775e+00,6.24,2.74
-4.774e+00,6.32,2.74
-4.773e+00,6.24,2.74
-4.772e+00,6.24,2.7
-4.771e+00,6.16,2.7
-4.770e+00,6.24,2.7
-4.769e+00,6.24,2.74
-4.768e+00,6.24,2.66
-4.767e+00,6.32,2.74
-4.766e+00,6.24,2.7
-4.765e+00,6.4,2.7
-4.764e+00,6.32,2.66
-4.763e+00,6.32,2.66
-4.762e+00,6.24,2.62
-4.761e+00,6.24,2.66
-4.760e+00,6.32,2.66
-4.759e+00,6.32,2.66
-4.758e+00,6.24,2.62
-4.757e+00,6.24,2.66
-4.756e+00,6.16,2.7
-4.755e+00,6.24,2.62
-4.754e+00,6.32,2.62
-4.753e+00,6.24,2.58
-4.752e+00,6.4,2.66
-4.751e+00,6.24,2.58
-4.750e+00,6.16,2.62
-4.749e+00,6.16,2.58
-4.748e+00,6.32,2.62
-4.747e+00,6.32,2.58
-4.746e+00,6.24,2.58
-4.745e+00,6.24,2.58
-4.744e+00,6.32,2.58
-4.743e+00,6.24,2.54
-4.742e+00,6.16,2.58
-4.741e+00,6.24,2.62
-4.740e+00,6.32,2.5
-4.739e+00,6.32,2.58
-4.738e+00,6.24,2.58
-4.737e+00,6.24,2.58
-4.736e+00,6.32,2.54
-4.735e+00,6.24,2.54
-4.734e+00,6.24,2.54
-4.733e+00,6.32,2.5
-4.732e+00,6.24,2.54
-4.731e+00,6.16,2.5
-4.730e+00,6.32,2.46
-4.729e+00,6.32,2.46
-4.728e+00,6.24,2.46
-4.727e+00,6.24,2.5
-4.726e+00,6.24,2.5
-4.725e+00,6.24,2.46
-4.724e+00,6.24,2.46
-4.723e+00,6.32,2.46
-4.722e+00,6.24,2.42
-4.721e+00,6.16,2.46
-4.720e+00,6.32,2.46
-4.719e+00,6.32,2.42
-4.718e+00,6.32,2.46
-4.717e+00,6.24,2.46
-4.716e+00,6.24,2.42
-4.715e+00,6.24,2.46
-4.714e+00,6.32,2.46
-4.713e+00,6.24,2.46
-4.712e+00,6.24,2.42
-4.711e+00,6.24,2.46
-4.710e+00,6.24,2.42
-4.709e+00,6.24,2.42
-4.708e+00,6.24,2.38
-4.707e+00,6.32,2.38
-4.706e+00,6.32,2.38
-4.705e+00,6.24,2.38
-4.704e+00,6.24,2.38
-4.703e+00,6.32,2.34
-4.702e+00,6.32,2.38
-4.701e+00,6.24,2.34
-4.700e+00,6.24,2.34
-4.699e+00,6.32,2.34
-4.698e+00,6.24,2.34
-4.697e+00,6.24,2.34
-4.696e+00,6.24,2.34
-4.695e+00,6.24,2.34
-4.694e+00,6.24,2.3
-4.693e+00,6.32,2.3
-4.692e+00,6.24,2.34
-4.691e+00,6.24,2.3
-4.690e+00,6.24,2.26
-4.689e+00,6.24,2.3
-4.688e+00,6.32,2.3
-4.687e+00,6.16,2.26
-4.686e+00,6.32,2.26
-4.685e+00,6.24,2.26
-4.684e+00,6.24,2.26
-4.683e+00,6.32,2.26
-4.682e+00,6.24,2.3
-4.681e+00,6.32,2.26
-4.680e+00,6.24,2.3
-4.679e+00,6.32,2.26
-4.678e+00,6.24,2.22
-4.677e+00,6.24,2.26
-4.676e+00,6.24,2.22
-4.675e+00,6.24,2.3
-4.674e+00,6.24,2.18
-4.673e+00,6.32,2.22
-4.672e+00,6.32,2.22
-4.671e+00,6.32,2.22
-4.670e+00,6.24,2.22
-4.669e+00,6.32,2.18
-4.668e+00,6.24,2.22
-4.667e+00,6.24,2.18
-4.666e+00,6.24,2.18
-4.665e+00,6.32,2.22
-4.664e+00,6.32,2.18
-4.663e+00,6.32,2.18
-4.662e+00,6.16,2.22
-4.661e+00,6.24,2.14
-4.660e+00,6.32,2.18
-4.659e+00,6.24,2.22
-4.658e+00,6.24,2.18
-4.657e+00,6.24,2.18
-4.656e+00,6.24,2.14
-4.655e+00,6.32,2.1
-4.654e+00,6.32,2.18
-4.653e+00,6.24,2.14
-4.652e+00,6.24,2.1
-4.651e+00,6.32,2.1
-4.650e+00,6.24,2.1
-4.649e+00,6.32,2.1
-4.648e+00,6.32,2.1
-4.647e+00,6.32,2.1
-4.646e+00,6.32,2.14
-4.645e+00,6.24,2.1
-4.644e+00,6.24,2.1
-4.643e+00,6.32,2.06
-4.642e+00,6.32,2.02
-4.641e+00,6.32,2.06
-4.640e+00,6.24,2.06
-4.639e+00,6.32,2.1
-4.638e+00,6.24,2.1
-4.637e+00,6.24,2.06
-4.636e+00,6.32,2.06
-4.635e+00,6.16,2.06
-4.634e+00,6.32,2.02
-4.633e+00,6.32,2.02
-4.632e+00,6.32,2.02
-4.631e+00,6.24,1.98
-4.630e+00,6.24,2.02
-4.629e+00,6.32,2.06
-4.628e+00,6.24,1.98
-4.627e+00,6.32,1.98
-4.626e+00,6.32,2.02
-4.625e+00,6.4,2.02
-4.624e+00,6.24,1.98
-4.623e+00,6.32,1.98
-4.622e+00,6.32,1.98
-4.621e+00,6.24,2.02
-4.620e+00,6.32,1.98
-4.619e+00,6.32,1.98
-4.618e+00,6.24,1.98
-4.617e+00,6.24,1.98
-4.616e+00,6.32,1.98
-4.615e+00,6.24,1.98
-4.614e+00,6.24,1.98
-4.613e+00,6.16,1.94
-4.612e+00,6.32,1.98
-4.611e+00,6.32,1.98
-4.610e+00,6.32,1.94
-4.609e+00,6.24,1.94
-4.608e+00,6.32,1.94
-4.607e+00,6.32,1.94
-4.606e+00,6.32,1.94
-4.605e+00,6.24,1.94
-4.604e+00,6.24,1.94
-4.603e+00,6.4,1.94
-4.602e+00,6.32,1.94
-4.601e+00,6.32,1.94
-4.600e+00,6.24,1.94
-4.599e+00,6.24,1.86
-4.598e+00,6.24,1.94
-4.597e+00,6.24,1.94
-4.596e+00,6.32,1.9
-4.595e+00,6.24,1.94
-4.594e+00,6.4,1.9
-4.593e+00,6.24,1.9
-4.592e+00,6.32,1.9
-4.591e+00,6.32,1.86
-4.590e+00,6.32,1.86
-4.589e+00,6.24,1.9
-4.588e+00,6.16,1.86
-4.587e+00,6.32,1.82
-4.586e+00,6.24,1.9
-4.585e+00,6.24,1.78
-4.584e+00,6.32,1.86
-4.583e+00,6.32,1.86
-4.582e+00,6.24,1.82
-4.581e+00,6.24,1.86
-4.580e+00,6.4,1.78
-4.579e+00,6.32,1.86
-4.578e+00,6.24,1.86
-4.577e+00,6.32,1.86
-4.576e+00,6.4,1.86
-4.575e+00,6.24,1.82
-4.574e+00,6.32,1.78
-4.573e+00,6.24,1.78
-4.572e+00,6.32,1.82
-4.571e+00,6.32,1.82
-4.570e+00,6.32,1.82
-4.569e+00,6.32,1.74
-4.568e+00,6.32,1.78
-4.567e+00,6.32,1.78
-4.566e+00,6.08,1.78
-4.565e+00,6.24,1.82
-4.564e+00,6.32,1.78
-4.563e+00,6.24,1.74
-4.562e+00,6.32,1.74
-4.561e+00,6.24,1.74
-4.560e+00,6.24,1.74
-4.559e+00,6.24,1.74
-4.558e+00,6.32,1.7
-4.557e+00,6.24,1.74
-4.556e+00,6.32,1.7
-4.555e+00,6.32,1.7
-4.554e+00,6.32,1.7
-4.553e+00,6.32,1.74
-4.552e+00,6.24,1.7
-4.551e+00,6.24,1.7
-4.550e+00,6.24,1.7
-4.549e+00,6.24,1.7
-4.548e+00,6.24,1.66
-4.547e+00,6.24,1.7
-4.546e+00,6.24,1.66
-4.545e+00,6.24,1.62
-4.544e+00,6.32,1.7
-4.543e+00,6.24,1.66
-4.542e+00,6.24,1.66
-4.541e+00,6.24,1.7
-4.540e+00,6.24,1.62
-4.539e+00,6.24,1.66
-4.538e+00,6.24,1.66
-4.537e+00,6.32,1.66
-4.536e+00,6.24,1.62
-4.535e+00,6.32,1.66
-4.534e+00,6.32,1.62
-4.533e+00,6.24,1.62
-4.532e+00,6.24,1.66
-4.531e+00,6.24,1.66
-4.530e+00,6.24,1.58
-4.529e+00,6.32,1.62
-4.528e+00,6.24,1.62
-4.527e+00,6.24,1.62
-4.526e+00,6.24,1.58
-4.525e+00,6.24,1.58
-4.524e+00,6.32,1.58
-4.523e+00,6.24,1.58
-4.522e+00,6.32,1.58
-4.521e+00,6.32,1.54
-4.520e+00,6.32,1.58
-4.519e+00,6.24,1.54
-4.518e+00,6.24,1.58
-4.517e+00,6.32,1.58
-4.516e+00,6.32,1.58
-4.515e+00,6.24,1.54
-4.514e+00,6.24,1.5
-4.513e+00,6.24,1.58
-4.512e+00,6.24,1.54
-4.511e+00,6.32,1.54
-4.510e+00,6.24,1.54
-4.509e+00,6.24,1.54
-4.508e+00,6.24,1.54
-4.507e+00,6.24,1.54
-4.506e+00,6.24,1.54
-4.505e+00,6.24,1.5
-4.504e+00,6.24,1.5
-4.503e+00,6.32,1.5
-4.502e+00,6.24,1.5
-4.501e+00,6.24,1.46
-4.500e+00,6.32,1.46
-4.499e+00,6.24,1.46
-4.498e+00,6.32,1.46
-4.497e+00,6.32,1.5
-4.496e+00,6.24,1.46
-4.495e+00,6.24,1.5
-4.494e+00,6.24,1.42
-4.493e+00,6.24,1.42
-4.492e+00,6.24,1.38
-4.491e+00,6.24,1.42
-4.490e+00,6.24,1.42
-4.489e+00,6.32,1.42
-4.488e+00,6.24,1.46
-4.487e+00,6.24,1.5
-4.486e+00,6.24,1.42
-4.485e+00,6.32,1.42
-4.484e+00,6.32,1.46
-4.483e+00,6.24,1.38
-4.482e+00,6.24,1.42
-4.481e+00,6.24,1.38
-4.480e+00,6.24,1.42
-4.479e+00,6.24,1.38
-4.478e+00,6.24,1.38
-4.477e+00,6.24,1.38
-4.476e+00,6.24,1.42
-4.475e+00,6.24,1.42
-4.474e+00,6.24,1.34
-4.473e+00,6.16,1.38
-4.472e+00,6.24,1.38
-4.471e+00,6.16,1.38
-4.470e+00,6.16,1.38
-4.469e+00,6.32,1.38
-4.468e+00,6.16,1.38
-4.467e+00,6.24,1.34
-4.466e+00,6.24,1.38
-4.465e+00,6.24,1.38
-4.464e+00,6.24,1.3
-4.463e+00,6.32,1.38
-4.462e+00,6.16,1.38
-4.461e+00,6.24,1.34
-4.460e+00,6.24,1.34
-4.459e+00,6.32,1.34
-4.458e+00,6.24,1.34
-4.457e+00,6.08,1.34
-4.456e+00,6.24,1.3
-4.455e+00,6.32,1.34
-4.454e+00,6.32,1.26
-4.453e+00,6.24,1.3
-4.452e+00,6.32,1.34
-4.451e+00,6.24,1.3
-4.450e+00,6.24,1.3
-4.449e+00,6.16,1.22
-4.448e+00,6.24,1.26
-4.447e+00,6.16,1.3
-4.446e+00,6.24,1.26
-4.445e+00,6.32,1.3
-4.444e+00,6.24,1.26
-4.443e+00,6.24,1.26
-4.442e+00,6.24,1.26
-4.441e+00,6.24,1.3
-4.440e+00,6.24,1.22
-4.439e+00,6.24,1.26
-4.438e+00,6.24,1.26
-4.437e+00,6.24,1.22
-4.436e+00,6.24,1.22
-4.435e+00,6.32,1.26
-4.434e+00,6.24,1.22
-4.433e+00,6.24,1.18
-4.432e+00,6.32,1.22
-4.431e+00,6.32,1.22
-4.430e+00,6.24,1.22
-4.429e+00,6.32,1.26
-4.428e+00,6.32,1.18
-4.427e+00,6.24,1.22
-4.426e+00,6.24,1.22
-4.425e+00,6.32,1.22
-4.424e+00,6.32,1.18
-4.423e+00,6.24,1.18
-4.422e+00,6.24,1.18
-4.421e+00,6.24,1.22
-4.420e+00,6.32,1.18
-4.419e+00,6.24,1.18
-4.418e+00,6.16,1.14
-4.417e+00,6.24,1.18
-4.416e+00,6.24,1.18
-4.415e+00,6.24,1.18
-4.414e+00,6.24,1.18
-4.413e+00,6.24,1.14
-4.412e+00,6.24,1.18
-4.411e+00,6.24,1.14
-4.410e+00,6.24,1.1
-4.409e+00,6.32,1.1
-4.408e+00,6.24,1.14
-4.407e+00,6.4,1.14
-4.406e+00,6.24,1.1
-4.405e+00,6.24,1.1
-4.404e+00,6.24,1.1
-4.403e+00,6.16,1.1
-4.402e+00,6.16,1.1
-4.401e+00,6.24,1.1
-4.400e+00,6.16,1.1
-4.399e+00,6.16,1.1
-4.398e+00,6.32,1.14
-4.397e+00,6.24,1.1
-4.396e+00,6.24,1.14
-4.395e+00,6.24,1.1
-4.394e+00,6.32,1.1
-4.393e+00,6.24,1.1
-4.392e+00,6.24,1.02
-4.391e+00,6.24,1.06
-4.390e+00,6.16,1.1
-4.389e+00,6.24,1.06
-4.388e+00,6.24,1.06
-4.387e+00,6.32,1.06
-4.386e+00,6.24,1.1
-4.385e+00,6.24,1.06
-4.384e+00,6.16,0.98
-4.383e+00,6.24,1.06
-4.382e+00,6.24,0.98
-4.381e+00,6.24,1.02
-4.380e+00,6.24,1.06
-4.379e+00,6.24,1.02
-4.378e+00,6.32,1.02
-4.377e+00,6.24,1.02
-4.376e+00,6.16,1.02
-4.375e+00,6.24,0.98
-4.374e+00,6.24,1.02
-4.373e+00,6.24,1.06
-4.372e+00,6.24,1.06
-4.371e+00,6.24,0.98
-4.370e+00,6.24,1.02
-4.369e+00,6.32,0.98
-4.368e+00,6.24,0.98
-4.367e+00,6.24,1.02
-4.366e+00,6.32,1.02
-4.365e+00,6.4,0.98
-4.364e+00,6.24,0.94
-4.363e+00,6.32,0.98
-4.362e+00,6.32,0.94
-4.361e+00,6.24,0.94
-4.360e+00,6.24,0.94
-4.359e+00,6.24,0.94
-4.358e+00,6.32,0.98
-4.357e+00,6.16,0.98
-4.356e+00,6.16,0.98
-4.355e+00,6.32,0.98
-4.354e+00,6.16,0.86
-4.353e+00,6.24,0.98
-4.352e+00,6.24,0.9
-4.351e+00,6.24,0.94
-4.350e+00,6.24,0.9
-4.349e+00,6.24,0.94
-4.348e+00,6.24,0.9
-4.347e+00,6.32,0.98
-4.346e+00,6.24,0.94
-4.345e+00,6.16,0.9
-4.344e+00,6.24,0.94
-4.343e+00,6.24,0.9
-4.342e+00,6.24,0.86
-4.341e+00,6.24,0.9
-4.340e+00,6.32,0.9
-4.339e+00,6.24,0.94
-4.338e+00,6.24,0.9
-4.337e+00,6.24,0.9
-4.336e+00,6.24,0.9
-4.335e+00,6.32,0.9
-4.334e+00,6.32,0.9
-4.333e+00,6.24,0.94
-4.332e+00,6.24,0.9
-4.331e+00,6.32,0.9
-4.330e+00,6.24,0.86
-4.329e+00,6.24,0.9
-4.328e+00,6.24,0.9
-4.327e+00,6.16,0.86
-4.326e+00,6.24,0.82
-4.325e+00,6.24,0.9
-4.324e+00,6.24,0.86
-4.323e+00,6.24,0.9
-4.322e+00,6.32,0.82
-4.321e+00,6.24,0.86
-4.320e+00,6.24,0.86
-4.319e+00,6.32,0.82
-4.318e+00,6.16,0.82
-4.317e+00,6.24,0.82
-4.316e+00,6.32,0.82
-4.315e+00,6.24,0.82
-4.314e+00,6.24,0.86
-4.313e+00,6.4,0.82
-4.312e+00,6.24,0.82
-4.311e+00,6.24,0.86
-4.310e+00,6.24,0.78
-4.309e+00,6.24,0.78
-4.308e+00,6.24,0.82
-4.307e+00,6.24,0.82
-4.306e+00,6.24,0.82
-4.305e+00,6.24,0.78
-4.304e+00,6.24,0.82
-4.303e+00,6.24,0.82
-4.302e+00,6.24,0.78
-4.301e+00,6.24,0.78
-4.300e+00,6.24,0.78
-4.299e+00,6.24,0.78
-4.298e+00,6.24,0.82
-4.297e+00,6.24,0.82
-4.296e+00,6.16,0.78
-4.295e+00,6.24,0.78
-4.294e+00,6.16,0.74
-4.293e+00,6.24,0.78
-4.292e+00,6.32,0.78
-4.291e+00,6.32,0.78
-4.290e+00,6.24,0.74
-4.289e+00,6.16,0.74
-4.288e+00,6.24,0.7
-4.287e+00,6.32,0.74
-4.286e+00,6.24,0.78
-4.285e+00,6.32,0.74
-4.284e+00,6.24,0.74
-4.283e+00,6.32,0.74
-4.282e+00,6.24,0.74
-4.281e+00,6.24,0.74
-4.280e+00,6.24,0.74
-4.279e+00,6.24,0.74
-4.278e+00,6.24,0.7
-4.277e+00,6.32,0.74
-4.276e+00,6.24,0.7
-4.275e+00,6.24,0.7
-4.274e+00,6.24,0.7
-4.273e+00,6.24,0.78
-4.272e+00,6.32,0.7
-4.271e+00,6.24,0.66
-4.270e+00,6.24,0.7
-4.269e+00,6.24,0.74
-4.268e+00,6.32,0.74
-4.267e+00,6.32,0.74
-4.266e+00,6.24,0.7
-4.265e+00,6.16,0.66
-4.264e+00,6.24,0.7
-4.263e+00,6.24,0.7
-4.262e+00,6.24,0.7
-4.261e+00,6.24,0.7
-4.260e+00,6.24,0.66
-4.259e+00,6.24,0.62
-4.258e+00,6.24,0.7
-4.257e+00,6.32,0.7
-4.256e+00,6.32,0.7
-4.255e+00,6.32,0.7
-4.254e+00,6.32,0.7
-4.253e+00,6.24,0.66
-4.252e+00,6.32,0.7
-4.251e+00,6.24,0.62
-4.250e+00,6.24,0.7
-4.249e+00,6.32,0.66
-4.248e+00,6.32,0.62
-4.247e+00,6.32,0.66
-4.246e+00,6.16,0.62
-4.245e+00,6.24,0.66
-4.244e+00,6.24,0.66
-4.243e+00,6.32,0.66
-4.242e+00,6.24,0.66
-4.241e+00,6.16,0.62
-4.240e+00,6.24,0.62
-4.239e+00,6.24,0.66
-4.238e+00,6.16,0.66
-4.237e+00,6.32,0.62
-4.236e+00,6.32,0.66
-4.235e+00,6.24,0.62
-4.234e+00,6.24,0.62
-4.233e+00,6.32,0.58
-4.232e+00,6.24,0.62
-4.231e+00,6.24,0.62
-4.230e+00,6.24,0.66
-4.229e+00,6.24,0.62
-4.228e+00,6.24,0.62
-4.227e+00,6.24,0.58
-4.226e+00,6.24,0.66
-4.225e+00,6.24,0.66
-4.224e+00,6.24,0.58
-4.223e+00,6.24,0.62
-4.222e+00,6.32,0.62
-4.221e+00,6.16,0.58
-4.220e+00,6.24,0.54
-4.219e+00,6.24,0.58
-4.218e+00,6.24,0.66
-4.217e+00,6.32,0.62
-4.216e+00,6.24,0.58
-4.215e+00,6.24,0.58
-4.214e+00,6.24,0.54
-4.213e+00,6.24,0.62
-4.212e+00,6.24,0.58
-4.211e+00,6.16,0.58
-4.210e+00,6.16,0.62
-4.209e+00,6.16,0.58
-4.208e+00,6.24,0.62
-4.207e+00,6.32,0.58
-4.206e+00,6.24,0.66
-4.205e+00,6.32,0.58
-4.204e+00,6.24,0.58
-4.203e+00,6.16,0.62
-4.202e+00,6.16,0.58
-4.201e+00,6.32,0.58
-4.200e+00,6.24,0.54
-4.199e+00,6.24,0.5
-4.198e+00,6.16,0.54
-4.197e+00,6.32,0.54
-4.196e+00,6.24,0.5
-4.195e+00,6.16,0.58
-4.194e+00,6.24,0.54
-4.193e+00,6.24,0.54
-4.192e+00,6.24,0.58
-4.191e+00,6.32,0.58
-4.190e+00,6.16,0.58
-4.189e+00,6.24,0.54
-4.188e+00,6.24,0.54
-4.187e+00,6.24,0.58
-4.186e+00,6.24,0.5
-4.185e+00,6.24,0.54
-4.184e+00,6.24,0.54
-4.183e+00,6.24,0.54
-4.182e+00,6.32,0.5
-4.181e+00,6.32,0.5
-4.180e+00,6.32,0.54
-4.179e+00,6.32,0.54
-4.178e+00,6.24,0.5
-4.177e+00,6.32,0.46
-4.176e+00,6.24,0.5
-4.175e+00,6.24,0.54
-4.174e+00,6.24,0.54
-4.173e+00,6.24,0.54
-4.172e+00,6.16,0.5
-4.171e+00,6.24,0.54
-4.170e+00,6.16,0.5
-4.169e+00,6.24,0.5
-4.168e+00,6.16,0.46
-4.167e+00,6.24,0.5
-4.166e+00,6.32,0.46
-4.165e+00,6.24,0.5
-4.164e+00,6.24,0.54
-4.163e+00,6.16,0.5
-4.162e+00,6.32,0.5
-4.161e+00,6.24,0.5
-4.160e+00,6.24,0.46
-4.159e+00,6.24,0.5
-4.158e+00,6.24,0.46
-4.157e+00,6.32,0.5
-4.156e+00,6.32,0.46
-4.155e+00,6.24,0.46
-4.154e+00,6.32,0.46
-4.153e+00,6.24,0.46
-4.152e+00,6.24,0.46
-4.151e+00,6.24,0.46
-4.150e+00,6.16,0.46
-4.149e+00,6.24,0.46
-4.148e+00,6.24,0.46
-4.147e+00,6.24,0.46
-4.146e+00,6.24,0.42
-4.145e+00,6.24,0.5
-4.144e+00,6.24,0.5
-4.143e+00,6.24,0.42
-4.142e+00,6.16,0.46
-4.141e+00,6.24,0.46
-4.140e+00,6.32,0.46
-4.139e+00,6.32,0.46
-4.138e+00,6.24,0.46
-4.137e+00,6.24,0.46
-4.136e+00,6.24,0.46
-4.135e+00,6.16,0.42
-4.134e+00,6.24,0.42
-4.133e+00,6.24,0.42
-4.132e+00,6.32,0.42
-4.131e+00,6.24,0.46
-4.130e+00,6.24,0.46
-4.129e+00,6.24,0.42
-4.128e+00,6.24,0.38
-4.127e+00,6.24,0.42
-4.126e+00,6.24,0.42
-4.125e+00,6.24,0.46
-4.124e+00,6.24,0.46
-4.123e+00,6.24,0.42
-4.122e+00,6.24,0.42
-4.121e+00,6.24,0.42
-4.120e+00,6.24,0.46
-4.119e+00,6.32,0.42
-4.118e+00,6.24,0.42
-4.117e+00,6.24,0.46
-4.116e+00,6.4,0.42
-4.115e+00,6.32,0.42
-4.114e+00,6.24,0.42
-4.113e+00,6.24,0.42
-4.112e+00,6.24,0.34
-4.111e+00,6.16,0.38
-4.110e+00,6.24,0.42
-4.109e+00,6.32,0.38
-4.108e+00,6.24,0.42
-4.107e+00,6.32,0.46
-4.106e+00,6.32,0.38
-4.105e+00,6.24,0.38
-4.104e+00,6.32,0.38
-4.103e+00,6.32,0.38
-4.102e+00,6.32,0.38
-4.101e+00,6.24,0.42
-4.100e+00,6.24,0.38
-4.099e+00,6.24,0.38
-4.098e+00,6.32,0.38
-4.097e+00,6.24,0.42
-4.096e+00,6.24,0.42
-4.095e+00,6.24,0.34
-4.094e+00,6.32,0.42
-4.093e+00,6.32,0.38
-4.092e+00,6.24,0.38
-4.091e+00,6.24,0.42
-4.090e+00,6.24,0.38
-4.089e+00,6.32,0.42
-4.088e+00,6.32,0.42
-4.087e+00,6.24,0.38
-4.086e+00,6.24,0.38
-4.085e+00,6.32,0.34
-4.084e+00,6.24,0.38
-4.083e+00,6.32,0.38
-4.082e+00,6.24,0.34
-4.081e+00,6.32,0.34
-4.080e+00,6.32,0.38
-4.079e+00,6.32,0.38
-4.078e+00,6.24,0.38
-4.077e+00,6.24,0.38
-4.076e+00,6.24,0.38
-4.075e+00,6.24,0.38
-4.074e+00,6.24,0.34
-4.073e+00,6.24,0.34
-4.072e+00,6.32,0.38
-4.071e+00,6.24,0.38
-4.070e+00,6.24,0.42
-4.069e+00,6.24,0.38
-4.068e+00,6.24,0.38
-4.067e+00,6.24,0.38
-4.066e+00,6.32,0.34
-4.065e+00,6.24,0.42
-4.064e+00,6.24,0.34
-4.063e+00,6.24,0.34
-4.062e+00,6.24,0.34
-4.061e+00,6.24,0.3
-4.060e+00,6.24,0.38
-4.059e+00,6.16,0.34
-4.058e+00,6.32,0.38
-4.057e+00,6.24,0.38
-4.056e+00,6.32,0.34
